<!DOCTYPE html>
<html lang="ru" data-vue-meta="%7B%22lang%22:%7B%22ssr%22:%22ru%22%7D%7D">
<head >
  <meta charset="UTF-8">
  <meta name="viewport" content="width=device-width,initial-scale=1.0,viewport-fit=cover,maximum-scale=1,user-scalable=0">
  <meta name="referrer" content="unsafe-url">
  <title>Оригинальность человеческой идеи после ИИ / Хабр</title>
  <style>
    /* cyrillic-ext */
    @font-face {
      font-family: 'Fira Sans';
      font-style: normal;
      font-weight: 500;
      font-display: swap;
      src: url(https://fonts.gstatic.com/s/firasans/v11/va9B4kDNxMZdWfMOD5VnZKveSxf6TF0.woff2) format('woff2');
      unicode-range: U+0460-052F, U+1C80-1C88, U+20B4, U+2DE0-2DFF, U+A640-A69F, U+FE2E-FE2F;
    }

    /* cyrillic */
    @font-face {
      font-family: 'Fira Sans';
      font-style: normal;
      font-weight: 500;
      font-display: swap;
      src: url(https://fonts.gstatic.com/s/firasans/v11/va9B4kDNxMZdWfMOD5VnZKveQhf6TF0.woff2) format('woff2');
      unicode-range: U+0400-045F, U+0490-0491, U+04B0-04B1, U+2116;
    }

    /* latin-ext */
    @font-face {
      font-family: 'Fira Sans';
      font-style: normal;
      font-weight: 500;
      font-display: swap;
      src: url(https://fonts.gstatic.com/s/firasans/v11/va9B4kDNxMZdWfMOD5VnZKveSBf6TF0.woff2) format('woff2');
      unicode-range: U+0100-024F, U+0259, U+1E00-1EFF, U+2020, U+20A0-20AB, U+20AD-20CF, U+2113, U+2C60-2C7F, U+A720-A7FF;
    }

    /* latin */
    @font-face {
      font-family: 'Fira Sans';
      font-style: normal;
      font-weight: 500;
      font-display: swap;
      src: url(https://fonts.gstatic.com/s/firasans/v11/va9B4kDNxMZdWfMOD5VnZKveRhf6.woff2) format('woff2');
      unicode-range: U+0000-00FF, U+0131, U+0152-0153, U+02BB-02BC, U+02C6, U+02DA, U+02DC, U+2000-206F, U+2074, U+20AC, U+2122, U+2191, U+2193, U+2212, U+2215, U+FEFF, U+FFFD;
    }

    /* non-breaking hyphen */
    @font-face {
      font-family: 'Fira Sans';
      font-style: normal;
      font-weight: 500;
      font-display: swap;
      src: url(https://fonts.gstatic.com/l/font?kit=KFOlCnqEu92Fr1MmEU9vBh0_IsHAlmrO6g&skey=ee881451c540fdec&v=v29) format('woff2');
      unicode-range: U+02011;
    }
  </style>
  <link rel="preload" href="https://assets.habr.com/habr-web/css/chunk-vendors.b6238726.css" as="style"><link rel="preload" href="https://assets.habr.com/habr-web/js/chunk-vendors.129fcbcb.js" as="script"><link rel="preload" href="https://assets.habr.com/habr-web/css/app.2dc3dce9.css" as="style"><link rel="preload" href="https://assets.habr.com/habr-web/js/app.8a380906.js" as="script"><link rel="preload" href="https://assets.habr.com/habr-web/js/7298.c8f1d73c.js" as="script">
  <link rel="stylesheet" href="https://assets.habr.com/habr-web/css/chunk-vendors.b6238726.css"><link rel="stylesheet" href="https://assets.habr.com/habr-web/css/app.2dc3dce9.css">
  <script>window.i18nFetch = new Promise((res, rej) => {
          const xhr = new XMLHttpRequest();
          xhr.open('GET', '/js/i18n/ru-compiled.99fdff73029c662d76a25e7927355795.json');
          xhr.responseType = 'json';
          xhr.onload = function(e) {
            if (this.status === 200) {
              res({ru: xhr.response});
            } else {
              rej(e);
            }
          };
          xhr.send();
        });</script>
  
  <script data-vue-meta="ssr" type="application/ld+json" data-vmid="ldjson-schema">{"@context":"http:\/\/schema.org","@type":"Article","mainEntityOfPage":{"@type":"WebPage","@id":"https:\/\/habr.com\/ru\/post\/718428\/"},"headline":"Оригинальность человеческой идеи после ИИ","datePublished":"2023-02-21T21:38:38+03:00","dateModified":"2023-02-22T09:13:15+03:00","author":{"@type":"Person","name":"Бухтияров Михаил Сергеевич"},"publisher":{"@type":"Organization","name":"Habr","logo":{"@type":"ImageObject","url":"https:\/\/habrastorage.org\/webt\/a_\/lk\/9m\/a_lk9mjkccjox-zccjrpfolmkmq.png"}},"description":"Основной вопрос, поднятый здесь: могут&nbsp;ли люди в&nbsp;будущем надеяться на&nbsp;оригинальность и значимость своих мыслей и идей, когда искусственный интеллект и нейросети...","url":"https:\/\/habr.com\/ru\/post\/718428\/#post-content-body","about":["h_artificial_intelligence","h_futurenow","f_popsci"],"image":["https:\/\/habr.com\/share\/publication\/718428\/d1b0d07c7435979fba610f633f2481eb\/","https:\/\/habrastorage.org\/getpro\/habr\/upload_files\/423\/578\/32f\/42357832f51b7be8190e152669f5bf06.png"]}</script>
  <script src="//www.googletagservices.com/tag/js/gpt.js" async></script>
  <style>.grecaptcha-badge{visibility: hidden;}</style>
  <meta name="habr-version" content="2.114.0">
  
  <meta data-vue-meta="ssr" property="fb:app_id" content="444736788986613"><meta data-vue-meta="ssr" property="fb:pages" content="472597926099084"><meta data-vue-meta="ssr" name="twitter:card" content="summary_large_image"><meta data-vue-meta="ssr" name="twitter:site" content="@habr_com"><meta data-vue-meta="ssr" property="og:site_name" content="Хабр" data-vmid="og:site_name"><meta data-vue-meta="ssr" property="og:title" content="Оригинальность человеческой идеи после ИИ" data-vmid="og:title"><meta data-vue-meta="ssr" name="twitter:title" content="Оригинальность человеческой идеи после ИИ" data-vmid="twitter:title"><meta data-vue-meta="ssr" name="aiturec:title" content="Оригинальность человеческой идеи после ИИ" data-vmid="aiturec:title"><meta data-vue-meta="ssr" name="description" content="Основной вопрос, поднятый здесь: могут&amp;nbsp;ли люди в&amp;nbsp;будущем надеяться на&amp;nbsp;оригинальность и значимость своих мыслей и идей, когда искусственный интеллект и нейросети уже так хорошо их..." data-vmid="description"><meta data-vue-meta="ssr" itemprop="description" content="Основной вопрос, поднятый здесь: могут&amp;nbsp;ли люди в&amp;nbsp;будущем надеяться на&amp;nbsp;оригинальность и значимость своих мыслей и идей, когда искусственный интеллект и нейросети уже так хорошо их..." data-vmid="description:itemprop"><meta data-vue-meta="ssr" property="og:description" content="Основной вопрос, поднятый здесь: могут&amp;nbsp;ли люди в&amp;nbsp;будущем надеяться на&amp;nbsp;оригинальность и значимость своих мыслей и идей, когда искусственный интеллект и нейросети уже так хорошо их..." data-vmid="og:description"><meta data-vue-meta="ssr" name="twitter:description" content="Основной вопрос, поднятый здесь: могут&amp;nbsp;ли люди в&amp;nbsp;будущем надеяться на&amp;nbsp;оригинальность и значимость своих мыслей и идей, когда искусственный интеллект и нейросети уже так хорошо их..." data-vmid="twitter:description"><meta data-vue-meta="ssr" property="aiturec:description" content="Основной вопрос, поднятый здесь: могут&amp;nbsp;ли люди в&amp;nbsp;будущем надеяться на&amp;nbsp;оригинальность и значимость своих мыслей и идей, когда искусственный интеллект и нейросети уже так хорошо их..." data-vmid="aiturec:description"><meta data-vue-meta="ssr" itemprop="image" content="https://habrastorage.org/getpro/habr/upload_files/423/578/32f/42357832f51b7be8190e152669f5bf06.png" data-vmid="image:itemprop"><meta data-vue-meta="ssr" property="og:image" content="https://habrastorage.org/getpro/habr/upload_files/423/578/32f/42357832f51b7be8190e152669f5bf06.png" data-vmid="og:image"><meta data-vue-meta="ssr" property="og:image:width" content="1200" data-vmid="og:image:width"><meta data-vue-meta="ssr" property="og:image:height" content="630" data-vmid="og:image:height"><meta data-vue-meta="ssr" property="aiturec:image" content="https://habrastorage.org/getpro/habr/upload_files/423/578/32f/42357832f51b7be8190e152669f5bf06.png" data-vmid="aiturec:image"><meta data-vue-meta="ssr" name="twitter:image" content="https://habrastorage.org/getpro/habr/upload_files/423/578/32f/42357832f51b7be8190e152669f5bf06.png" data-vmid="twitter:image"><meta data-vue-meta="ssr" property="vk:image" content="https://habrastorage.org/getpro/habr/upload_files/423/578/32f/42357832f51b7be8190e152669f5bf06.png?format=vk" data-vmid="vk:image"><meta data-vue-meta="ssr" property="aiturec:item_id" content="718428" data-vmid="aiturec:item_id"><meta data-vue-meta="ssr" property="aiturec:datetime" content="2023-02-21T18:38:38.000Z" data-vmid="aiturec:datetime"><meta data-vue-meta="ssr" content="https://habr.com/ru/post/718428/" property="og:url" data-vmid="og:url"><meta data-vue-meta="ssr" property="og:type" content="article" data-vmid="og:type"><meta data-vue-meta="ssr" property="og:locale" content="ru_RU" data-vmid="og:locale"><meta data-vue-meta="ssr" name="keywords" content="искусственный интеллект, этика цифровых технологий, мысль искусственного интеллекта">
  <link data-vue-meta="ssr" href="https://habr.com/ru/rss/post/718428/?fl=ru" type="application/rss+xml" title="" rel="alternate" name="rss"><link data-vue-meta="ssr" href="https://habr.com/ru/post/718428/" rel="canonical" data-vmid="canonical"><link data-vue-meta="ssr" rel="image_src" href="https://habrastorage.org/getpro/habr/upload_files/423/578/32f/42357832f51b7be8190e152669f5bf06.png" data-vmid="image:href"><link data-vue-meta="ssr" rel="amphtml" href="https://habr.com/ru/amp/post/718428/">
  <meta name="apple-mobile-web-app-status-bar-style" content="#303b44">
  <meta name="msapplication-TileColor" content="#629FBC">
  <meta name="apple-mobile-web-app-capable" content="yes">
  <meta name="mobile-web-app-capable" content="yes">
  <link
    rel="shortcut icon"
    type="image/png"
    sizes="16x16"
    href="https://assets.habr.com/habr-web/img/favicons/favicon-16.png"
  >
  <link
    rel="shortcut icon"
    type="image/png"
    sizes="32x32"
    href="https://assets.habr.com/habr-web/img/favicons/favicon-32.png"
  >
  <link
    rel="apple-touch-icon"
    type="image/png"
    sizes="76x76"
    href="https://assets.habr.com/habr-web/img/favicons/apple-touch-icon-76.png"
  >
  <link
    rel="apple-touch-icon"
    type="image/png"
    sizes="120x120"
    href="https://assets.habr.com/habr-web/img/favicons/apple-touch-icon-120.png"
  >
  <link
    rel="apple-touch-icon"
    type="image/png"
    sizes="152x152"
    href="https://assets.habr.com/habr-web/img/favicons/apple-touch-icon-152.png"
  >
  <link
    rel="apple-touch-icon"
    type="image/png"
    sizes="180x180"
    href="https://assets.habr.com/habr-web/img/favicons/apple-touch-icon-180.png"
  >
  <link
    rel="apple-touch-icon"
    type="image/png"
    sizes="256x256"
    href="https://assets.habr.com/habr-web/img/favicons/apple-touch-icon-256.png"
  >
  <link
    rel="apple-touch-startup-image"
    media="screen and (device-width: 320px) and (device-height: 568px) and (-webkit-device-pixel-ratio: 2) and (orientation: landscape)"
    href="https://assets.habr.com/habr-web/img/splashes/splash_1136x640.png"
  >
  <link
    rel="apple-touch-startup-image"
    media="screen and (device-width: 375px) and (device-height: 812px) and (-webkit-device-pixel-ratio: 3) and (orientation: landscape)"
    href="https://assets.habr.com/habr-web/img/splashes/splash_2436x1125.png"
  >
  <link
    rel="apple-touch-startup-image"
    media="screen and (device-width: 414px) and (device-height: 896px) and (-webkit-device-pixel-ratio: 2) and (orientation: landscape)"
    href="https://assets.habr.com/habr-web/img/splashes/splash_1792x828.png"
  >
  <link
    rel="apple-touch-startup-image"
    media="screen and (device-width: 414px) and (device-height: 896px) and (-webkit-device-pixel-ratio: 2) and (orientation: portrait)"
    href="https://assets.habr.com/habr-web/img/splashes/splash_828x1792.png"
  >
  <link
    rel="apple-touch-startup-image"
    media="screen and (device-width: 375px) and (device-height: 667px) and (-webkit-device-pixel-ratio: 2) and (orientation: landscape)"
    href="https://assets.habr.com/habr-web/img/splashes/splash_1334x750.png"
  >
  <link
    rel="apple-touch-startup-image"
    media="screen and (device-width: 414px) and (device-height: 896px) and (-webkit-device-pixel-ratio: 3) and (orientation: portrait)"
    href="https://assets.habr.com/habr-web/img/splashes/splash_1242x2668.png"
  >
  <link
    rel="apple-touch-startup-image"
    media="screen and (device-width: 414px) and (device-height: 736px) and (-webkit-device-pixel-ratio: 3) and (orientation: landscape)"
    href="https://assets.habr.com/habr-web/img/splashes/splash_2208x1242.png"
  >
  <link
    rel="apple-touch-startup-image"
    media="screen and (device-width: 375px) and (device-height: 812px) and (-webkit-device-pixel-ratio: 3) and (orientation: portrait)"
    href="https://assets.habr.com/habr-web/img/splashes/splash_1125x2436.png"
  >
  <link
    rel="apple-touch-startup-image"
    media="screen and (device-width: 414px) and (device-height: 736px) and (-webkit-device-pixel-ratio: 3) and (orientation: portrait)"
    href="https://assets.habr.com/habr-web/img/splashes/splash_1242x2208.png"
  >
  <link
    rel="apple-touch-startup-image"
    media="screen and (device-width: 1024px) and (device-height: 1366px) and (-webkit-device-pixel-ratio: 2) and (orientation: landscape)"
    href="https://assets.habr.com/habr-web/img/splashes/splash_2732x2048.png"
  >
  <link
    rel="apple-touch-startup-image"
    media="screen and (device-width: 414px) and (device-height: 896px) and (-webkit-device-pixel-ratio: 3) and (orientation: landscape)"
    href="https://assets.habr.com/habr-web/img/splashes/splash_2688x1242.png"
  >
  <link
    rel="apple-touch-startup-image"
    media="screen and (device-width: 834px) and (device-height: 1112px) and (-webkit-device-pixel-ratio: 2) and (orientation: landscape)"
    href="https://assets.habr.com/habr-web/img/splashes/splash_2224x1668.png"
  >
  <link
    rel="apple-touch-startup-image"
    media="screen and (device-width: 375px) and (device-height: 667px) and (-webkit-device-pixel-ratio: 2) and (orientation: portrait)"
    href="https://assets.habr.com/habr-web/img/splashes/splash_750x1334.png"
  >
  <link
    rel="apple-touch-startup-image"
    media="screen and (device-width: 1024px) and (device-height: 1366px) and (-webkit-device-pixel-ratio: 2) and (orientation: portrait)"
    href="https://assets.habr.com/habr-web/img/splashes/splash_2048x2732.png"
  >
  <link
    rel="apple-touch-startup-image"
    media="screen and (device-width: 834px) and (device-height: 1194px) and (-webkit-device-pixel-ratio: 2) and (orientation: landscape)"
    href="https://assets.habr.com/habr-web/img/splashes/splash_2388x1668.png"
  >
  <link
    rel="apple-touch-startup-image"
    media="screen and (device-width: 834px) and (device-height: 1112px) and (-webkit-device-pixel-ratio: 2) and (orientation: portrait)"
    href="https://assets.habr.com/habr-web/img/splashes/splash_1668x2224.png"
  >
  <link
    rel="apple-touch-startup-image"
    media="screen and (device-width: 320px) and (device-height: 568px) and (-webkit-device-pixel-ratio: 2) and (orientation: portrait)"
    href="https://assets.habr.com/habr-web/img/splashes/splash_640x1136.png"
  >
  <link
    rel="apple-touch-startup-image"
    media="screen and (device-width: 834px) and (device-height: 1194px) and (-webkit-device-pixel-ratio: 2) and (orientation: portrait)"
    href="https://assets.habr.com/habr-web/img/splashes/splash_1668x2388.png"
  >
  <link
    rel="apple-touch-startup-image"
    media="screen and (device-width: 768px) and (device-height: 1024px) and (-webkit-device-pixel-ratio: 2) and (orientation: landscape)"
    href="https://assets.habr.com/habr-web/img/splashes/splash_2048x1536.png"
  >
  <link
    rel="apple-touch-startup-image"
    media="screen and (device-width: 768px) and (device-height: 1024px) and (-webkit-device-pixel-ratio: 2) and (orientation: portrait)"
    href="https://assets.habr.com/habr-web/img/splashes/splash_1536x2048.png"
  >
  <link
    rel="mask-icon"
    color="#77a2b6"
    href="https://assets.habr.com/habr-web/img/favicons/apple-touch-icon-120.svg"
  >
  <link
    crossorigin="use-credentials"
    href="/manifest.webmanifest"
    rel="manifest"
  >
  <script async src="https://unpkg.com/pwacompat" crossorigin="anonymous"></script>
  <script>window.yaContextCb = window.yaContextCb || []</script>
  <script src="https://yandex.ru/ads/system/context.js" async></script>
</head>
<body>


<div id="app" data-server-rendered="true" data-async-called="true"><div class="tm-layout__wrapper"><!----> <div></div> <div class="tm-feature tm-feature"><!----></div> <header class="tm-header"><div class="tm-page-width"><div class="tm-header__container"><div class="tm-header__burger-nav"><button type="button" class="tm-header__button tm-header__button_burger"><svg height="16" width="16" class="tm-svg-img tm-header__icon tm-header__icon-burger"><title>Меню</title> <use xlink:href="/img/megazord-v28.2b11c25e..svg#header-burger"></use></svg></button></div> <span class="tm-header__logo-wrap"><a href="/ru/" class="tm-header__logo tm-header__logo_ru"><svg height="16" width="16" class="tm-svg-img tm-header__icon"><title>Хабр</title> <use xlink:href="/img/habr-logo-ru.svg#logo"></use></svg></a> <span class="tm-header__beta-sign" style="display:none;">β</span></span> <!----> <div class="tm-header-user-menu tm-header_user-menu"><a href="/ru/search/" class="tm-header-user-menu__item tm-header-user-menu__search"><svg height="24" width="24" class="tm-svg-img tm-header-user-menu__icon tm-header-user-menu__icon_search"><title>Поиск</title> <use xlink:href="/img/megazord-v28.2b11c25e..svg#search"></use></svg></a> <!----> <!----> <!----> <div class="tm-header-user-menu__item"><button data-test-id="menu-toggle-guest" class="tm-header-user-menu__toggle"><svg height="24" width="24" class="tm-svg-img tm-header-user-menu__icon tm-header-user-menu__icon_white"><title>Профиль</title> <use xlink:href="/img/megazord-v28.2b11c25e..svg#header-user"></use></svg></button> <!----></div> <!----></div></div></div></header> <div class="tm-layout"><div class="tm-page-progress-bar"></div> <!----> <!----> <div class="tm-page-width"></div> <main class="tm-layout__container"><div hl="ru" data-async-called="true" class="tm-page"><div class="tm-page-width"><!----> <div class="tm-page__wrapper"><div class="tm-page__main tm-page__main_has-sidebar"><div class="pull-down"><!----> <div class="pull-down__header" style="height:0px;"><div class="pull-down__content" style="bottom:10px;"><svg height="24" width="24" class="tm-svg-img pull-down__arrow"><title>Обновить</title> <use xlink:href="/img/megazord-v28.2b11c25e..svg#pull-arrow"></use></svg></div></div> <div class="tm-article-presenter"> <div class="tm-article-presenter__body"><div class="tm-misprint-area"><div class="tm-misprint-area__wrapper"><article class="tm-article-presenter__content tm-article-presenter__content_narrow"><div class="tm-article-presenter__header"> <div class="tm-article-snippet tm-article-presenter__snippet tm-article-snippet"><div class="tm-article-snippet__meta-container"><div class="tm-article-snippet__meta"><span class="tm-user-info tm-article-snippet__author"><a href="/ru/users/Mihahanya/" title="Mihahanya" class="tm-user-info__userpic"><div class="tm-entity-image"><img alt="" height="32" src="//habrastorage.org/r/w32/getpro/habr/avatars/625/f78/4e0/625f784e05e00dded4f79a8806660b2f.jpg" width="32" class="tm-entity-image__pic"></div></a> <span class="tm-user-info__user"><a href="/ru/users/Mihahanya/" class="tm-user-info__username">
      Mihahanya
      <!----></a> <span class="tm-article-datetime-published"><time datetime="2023-02-21T18:38:38.000Z" title="2023-02-21, 21:38">21  фев   в 21:38</time></span></span></span></div> <!----></div> <h1 lang="ru" class="tm-article-snippet__title tm-article-snippet__title_h1"><span>Оригинальность человеческой идеи после ИИ</span></h1> <div class="tm-article-snippet__stats"><div class="tm-article-complexity tm-article-complexity_complexity-medium"><span class="tm-svg-icon__wrapper tm-article-complexity__icon"><svg height="24" width="24" class="tm-svg-img tm-svg-icon"><title>Уровень сложности</title> <use xlink:href="/img/megazord-v28.2b11c25e..svg#complexity-medium"></use></svg></span> <span class="tm-article-complexity__label">
    Средний
  </span></div> <div class="tm-article-reading-time"><span class="tm-svg-icon__wrapper tm-article-reading-time__icon"><svg height="24" width="24" class="tm-svg-img tm-svg-icon"><title>Время на прочтение</title> <use xlink:href="/img/megazord-v28.2b11c25e..svg#clock"></use></svg></span> <span class="tm-article-reading-time__label">
    3 мин
  </span></div> <span class="tm-icon-counter tm-data-icons__item"><svg height="24" width="24" class="tm-svg-img tm-icon-counter__icon"><title>Количество просмотров</title> <use xlink:href="/img/megazord-v28.2b11c25e..svg#counter-views"></use></svg> <span class="tm-icon-counter__value">2K</span></span></div> <div class="tm-article-snippet__hubs-container"><div class="tm-article-snippet__hubs"><span class="tm-article-snippet__hubs-item"><a href="/ru/hub/artificial_intelligence/" class="tm-article-snippet__hubs-item-link"><span>Искусственный интеллект</span> <!----></a></span><span class="tm-article-snippet__hubs-item"><a href="/ru/hub/futurenow/" class="tm-article-snippet__hubs-item-link"><span>Будущее здесь</span> <!----></a></span></div></div> <div class="tm-article-snippet__labels-container"><div class="tm-article-snippet__labels"><div class="tm-article-snippet__label tm-article-snippet__label_variant-opinion"><span>
          Мнение
        </span></div> </div></div> <!----> <!----></div></div> <!----> <div data-gallery-root="" lang="ru" class="tm-article-body"><div></div> <div id="post-content-body"><div><div class="article-formatted-body article-formatted-body article-formatted-body_version-2"><div xmlns="http://www.w3.org/1999/xhtml"><p>Основной вопрос, поднятый здесь: <em>могут ли люди в будущем надеяться на оригинальность и значимость своих мыслей и идей, когда искусственный интеллект и нейросети уже так хорошо их имитируют?</em></p><figure class="bordered full-width "><img src="https://habrastorage.org/r/w1560/getpro/habr/upload_files/423/578/32f/42357832f51b7be8190e152669f5bf06.png" width="983" height="984" data-src="https://habrastorage.org/getpro/habr/upload_files/423/578/32f/42357832f51b7be8190e152669f5bf06.png"/><figcaption></figcaption></figure><p>Рассматривая данный вопрос выявляются два естественных пути развития: ИИ превосходит мысль человека, и общество ждет жесточайший культурный переворот, или он становится уже инструментом улучшения оригинальности человеческих идей. Представить иной путь, с отказом от ИИ или остановкой его развития, уже невозможно так как он уже оказывает существенное влияние на многие сферы нашей жизни.</p><p>Чтобы понять насколько вообще возможно создать оригинальную идею, рассмотрим как это делают нейросети и мы. </p><p>Чтобы нейросеть могла выдавать некие мысли и ответы она проходит процесс обучения, в ходе которого через нее пропускаются огромные объемы данных. ИИ выявляет закономерности и следствия в данных, запоминает информацию <em>[если так можно выражаться об алгоритме]</em>, чтобы потом выдать наиболее естественный и правильный ответ (относительно данных обучения). </p><p>Такой процесс получается справедливым и для формирования какого‑либо навыка человеком. Но навык ли творческий процесс? — не менее философский вопрос чем основной, поэтому будем рассматривать более близкий к основному: <em>может ли ИИ имитировать творческий процесс, а точнее результат этого процесса.</em></p><p>Если посмотреть из чего получается оригинальная мысль, то можем выделить следующие факторы: <em>личные ценности, культурный опыт, перспектива и взгляд на мир, эмоциональные и интуитивные компоненты</em>. Из этого и складывается индивидуальность творца‑человека. ИИ не обладает эмоциями. Но что из этого не может быть <em>имитировано</em>? Он не может обладать ничем из перечисленного, ведь это все присуще живым и мыслящим существам, а ИИ не живой; однако он может все это впитать и <em>воссоздать в себе</em>. Эти факторы — следствие всего пережитого, всего накопленного и отпечатанного опыта. А впитывать опыт — то, что ИИ и делают и способны делать это лучше нас и в гораздо большем объеме, чем способны люди, ведь ИИ не органичен физиологическими факторами.</p><p>Мораль, культура, наука — когда мы рождаемся мы не имеем понятия о них, но со временем осознаем, и уже самостоятельно можем анализировать поступки с моральной точки зрения, знакомы с различными культурными аспектами, способны создавать и доказывать гипотезы. Мы можем впервые в своей жизни сложить два случайных числа 1533 и 1902, зная принцип сложения, что такое цифры и как их записывать, с первого раза понять что такое «статичный», зная что такое статика и зная как образовываются слова — и все это из опыта. А ИИ уже освоил язык — основной инструмент мышления.</p><p>Из сказанного, очевидно, что моя аргументация строится на том, что, то главное, на чем стоит оригинальная идея — весь пережитый опыт; который вполне способен впитать и воспроизвести ИИ. Однако она естественно опровергается наличием другого неотъемлемого факта без которого не может появиться идея. <em>Воля</em>. Единственное, почему нейросеть выдаст тебе ответ: ты сделаешь запрос. Это не говорит о том, что ИИ не сможет выдать/принять запрос другого ИИ (или даже создать нового ИИ), а говорит лишь, что отправной точкой все равно будет человек, который даст эту возможность и сделает запрос <em>[будь у меня такая возможность, я бы не смог не сделать]</em>.</p><p>Необходимо обозначить, что, чтобы пройти путь до сверхмыслящего ИИ, обязана будет стадия ИИ‑помощника. А мы, если что, сейчас находимся на этой стадии, уже невозможно отрицать роль ИИ в современном мире. Выводы напрашиваются сами собой. Но если рассматривать сказанное ранее в менее радикальной форме, то более реалистичным виден расклад, что ИИ может использоваться как инструмент для расширения и открытия новых горизонтов для человеческой мысли, но при этом его мысль может превосходить мысль человека из‑за своей высокой скорости и точности вычислений. </p><p>Так могут ли люди в будущем надеяться на оригинальность и значимость своих мыслей и идей перед ИИ? — да, но и ИИ могут на это надеяться перед людьми.</p><p></p></div></div></div> <!----> <!----></div> <!----> <!----></div> <!----> <div class="tm-article-presenter__meta"><div class="tm-separated-list tm-article-presenter__meta-list"><span class="tm-separated-list__title">Теги:</span> <ul class="tm-separated-list__list"><li class="tm-separated-list__item"><a href="/ru/search/?target_type=posts&amp;order=relevance&amp;q=%5B%D0%B8%D1%81%D0%BA%D1%83%D1%81%D1%81%D1%82%D0%B2%D0%B5%D0%BD%D0%BD%D1%8B%D0%B9%20%D0%B8%D0%BD%D1%82%D0%B5%D0%BB%D0%BB%D0%B5%D0%BA%D1%82%5D" class="tm-tags-list__link">искусственный интеллект</a></li><li class="tm-separated-list__item"><a href="/ru/search/?target_type=posts&amp;order=relevance&amp;q=%5B%D1%8D%D1%82%D0%B8%D0%BA%D0%B0%20%D1%86%D0%B8%D1%84%D1%80%D0%BE%D0%B2%D1%8B%D1%85%20%D1%82%D0%B5%D1%85%D0%BD%D0%BE%D0%BB%D0%BE%D0%B3%D0%B8%D0%B9%5D" class="tm-tags-list__link">этика цифровых технологий</a></li><li class="tm-separated-list__item"><a href="/ru/search/?target_type=posts&amp;order=relevance&amp;q=%5B%D0%BC%D1%8B%D1%81%D0%BB%D1%8C%20%D0%B8%D1%81%D0%BA%D1%83%D1%81%D1%81%D1%82%D0%B2%D0%B5%D0%BD%D0%BD%D0%BE%D0%B3%D0%BE%20%D0%B8%D0%BD%D1%82%D0%B5%D0%BB%D0%BB%D0%B5%D0%BA%D1%82%D0%B0%5D" class="tm-tags-list__link">мысль искусственного интеллекта</a></li></ul></div> <div class="tm-separated-list tm-article-presenter__meta-list"><span class="tm-separated-list__title">Хабы:</span> <ul class="tm-separated-list__list"><li class="tm-separated-list__item"><a href="/ru/hub/artificial_intelligence/" class="tm-hubs-list__link">Искусственный интеллект</a></li><li class="tm-separated-list__item"><a href="/ru/hub/futurenow/" class="tm-hubs-list__link">Будущее здесь</a></li></ul></div></div></article></div> <!----></div> <div class="tm-article-sticky-panel"><div class="tm-data-icons tm-article-sticky-panel__icons"><div class="tm-article-rating tm-data-icons__item"><div class="tm-votes-meter tm-article-rating__votes-switcher"><svg height="24" width="24" class="tm-svg-img tm-votes-meter__icon tm-votes-meter__icon tm-votes-meter__icon_appearance-article"><title>Всего голосов 9: ↑2 и ↓7</title> <use xlink:href="/img/megazord-v28.2b11c25e..svg#counter-rating"></use></svg> <span title="Всего голосов 9: ↑2 и ↓7" class="tm-votes-meter__value tm-votes-meter__value tm-votes-meter__value_negative tm-votes-meter__value_appearance-article tm-votes-meter__value_rating">-5</span></div> <DIV class="v-portal" style="display:none;"></DIV></div> <!----> <!----> <button title="Добавить в закладки" type="button" class="bookmarks-button tm-data-icons__item"><span class="tm-svg-icon__wrapper bookmarks-button__icon"><svg height="24" width="24" class="tm-svg-img tm-svg-icon"><title>Добавить в закладки</title> <use xlink:href="/img/megazord-v28.2b11c25e..svg#counter-favorite"></use></svg></span> <span title="Количество пользователей, добавивших публикацию в закладки" class="bookmarks-button__counter">
    11
  </span></button> <div title="Читать комментарии" class="tm-article-comments-counter-link tm-data-icons__item"><a href="/ru/post/718428/comments/" class="tm-article-comments-counter-link__link"><svg height="24" width="24" class="tm-svg-img tm-article-comments-counter-link__icon"><title>Комментарии</title> <use xlink:href="/img/megazord-v28.2b11c25e..svg#counter-comments"></use></svg> <span class="tm-article-comments-counter-link__value">
      26
    </span></a> <!----></div> <div title="Поделиться" class="tm-sharing tm-data-icons__item"><button type="button" class="tm-sharing__button"><svg viewBox="0 0 24 24" xmlns="http://www.w3.org/2000/svg" class="tm-sharing__icon"><path fill="currentColor" d="M13.8 13.8V18l7.2-6.6L13.8 5v3.9C5 8.9 3 18.6 3 18.6c2.5-4.4 6-4.8 10.8-4.8z"></path></svg></button> <DIV class="v-portal" style="display:none;"></DIV></div> <DIV class="v-portal" style="display:none;"></DIV></div> </div></div> <DIV class="v-portal" style="display:none;"></DIV> <div class="tm-article-presenter__footer"><div class="tm-article-blocks"><!----> <div></div> <section class="tm-block tm-block tm-block_spacing-bottom"><!----> <div class="tm-block__body tm-block__body tm-block__body_variant-balanced"><div class="tm-article-author"> <div class="tm-user-card tm-article-author__user-card tm-user-card tm-user-card_variant-article"><div class="tm-user-card__info-container"><div class="tm-user-card__header"><div class="tm-user-card__header-data"><a href="/ru/users/Mihahanya/" class="tm-user-card__userpic tm-user-card__userpic_size-40"><div class="tm-entity-image"><img alt="" src="//habrastorage.org/getpro/habr/avatars/625/f78/4e0/625f784e05e00dded4f79a8806660b2f.jpg" class="tm-entity-image__pic"></div></a> <div class="tm-user-card__meta"><div title=" 19 голосов " class="tm-counter-container tm-karma tm-karma"><div class="tm-counter-container__header"><div class="tm-karma__votes tm-karma__votes_positive">
      11
    </div></div> <div class="tm-counter-container__footer"><div class="tm-karma__text">
      Карма
    </div> <DIV class="v-portal" style="display:none;"></DIV></div></div> <div title="Рейтинг пользователя" class="tm-counter-container"><div class="tm-counter-container__header"> <div class="tm-votes-lever tm-votes-lever tm-votes-lever_appearance-rating"><!----> <div class="tm-votes-lever__score tm-votes-lever__score tm-votes-lever__score_appearance-rating"><span class="tm-votes-lever__score-counter tm-votes-lever__score-counter tm-votes-lever__score-counter_rating">
        -2.5
      </span></div> <!----></div></div> <div class="tm-counter-container__footer"><span class="tm-rating__text tm-rating__text">
      Рейтинг
    </span></div></div></div></div></div> <div class="tm-user-card__info tm-user-card__info tm-user-card__info_variant-article"><div class="tm-user-card__title tm-user-card__title tm-user-card__title_variant-article"><span class="tm-user-card__name tm-user-card__name tm-user-card__name_variant-article">Бухтияров Михаил Сергеевич</span> <a href="/ru/users/Mihahanya/" class="tm-user-card__nickname tm-user-card__nickname tm-user-card__nickname_variant-article">
          @Mihahanya
        </a> <!----></div> <p class="tm-user-card__short-info tm-user-card__short-info tm-user-card__short-info_variant-article">Разработчик</p></div></div> <div class="tm-user-card__buttons tm-user-card__buttons tm-user-card__buttons_variant-article"><!----> <!----> <!----> <!----> <!----></div></div> <div class="tm-article-author__user-contacts"><a href="https://mihas-games.itch.io/" rel="noopener" target="_blank" class="tm-article-author__contact">
      Сайт
    </a><a href="https://github.com/Mihahanya/" rel="noopener" target="_blank" class="tm-article-author__contact">
      Github
    </a></div></div> <DIV class="v-portal" style="display:none;"></DIV></div> <!----></section> <div class="tm-adfox-banner__container tm-page-article__banner"><!----> <div id="adfox_164725660339535756" class="tm-adfox-banner tm-adfox-banner tm-adfox-banner_variant-leaderboard"></div></div> <div class="tm-article-blocks__comments"><div class="tm-article-page-comments"><div class="tm-article-comments-counter-link tm-article-comments-counter-button"><a href="/ru/post/718428/comments/" class="tm-article-comments-counter-link__link tm-article-comments-counter-link__link_button-style"><svg height="24" width="24" class="tm-svg-img tm-article-comments-counter-link__icon tm-article-comments-counter-link__icon_contrasted"><title>Комментарии</title> <use xlink:href="/img/megazord-v28.2b11c25e..svg#counter-comments"></use></svg> <span class="tm-article-comments-counter-link__value tm-article-comments-counter-link__value_contrasted">
       Комментарии 26 
    </span></a> <!----></div></div></div>  <section class="tm-block tm-block tm-block_spacing-bottom"><header class="tm-block__header tm-block__header tm-block__header_variant-borderless"><div class="tm-block__header-container"><h2 class="tm-block__title tm-block__title tm-block__title_variant-large">Публикации</h2> </div> <!----></header> <div class="tm-block__body tm-block__body tm-block__body_variant-condensed-slim"><div class="tm-tabs tm-tabs"><div><span class="tm-tabs__tab-item"><button class="tm-tabs__tab-link tm-tabs__tab-link tm-tabs__tab-link_active tm-tabs__tab-link_slim">
        Лучшие за сутки
      </button></span><span class="tm-tabs__tab-item"><button class="tm-tabs__tab-link tm-tabs__tab-link tm-tabs__tab-link_slim">
        Похожие
      </button></span></div> <!----></div> <div class="similar-and-daily__tab-view"><div><!----> <!----> <!----> <!----> <!----> <!----> <!----> <!----> <!----> <!----> <!----> <!----> <!----> <!----> <!----> <!----> <!----> <!----> <!----> <!----> <!----> <!----> <!----> <div class="tm-placeholder-article-cards"><div class="tm-placeholder-article-card"><div class="tm-placeholder__user"><div class="tm-placeholder__user-pic loads"></div> <div class="tm-placeholder__user-date loads"></div></div> <div class="tm-placeholder-article-card__title"><div class="tm-placeholder__line tm-placeholder-article-card__title-line loads"></div> <div class="tm-placeholder__line tm-placeholder-article-card__title-line loads"></div></div> <div class="tm-placeholder-article-card__icons tm-placeholder__counters"><div class="tm-placeholder-data-icon"><div class="tm-placeholder__icon tm-placeholder__icon_large loads"></div> <div class="tm-placeholder__line tm-placeholder__line_icon-text"></div></div><div class="tm-placeholder-data-icon"><div class="tm-placeholder__icon tm-placeholder__icon_large loads"></div> <div class="tm-placeholder__line tm-placeholder__line_icon-text"></div></div><div class="tm-placeholder-data-icon"><div class="tm-placeholder__icon tm-placeholder__icon_large loads"></div> <div class="tm-placeholder__line tm-placeholder__line_icon-text"></div></div><div class="tm-placeholder-data-icon"><div class="tm-placeholder__icon tm-placeholder__icon_large loads"></div> <div class="tm-placeholder__line tm-placeholder__line_icon-text"></div></div></div></div><div class="tm-placeholder-article-card"><div class="tm-placeholder__user"><div class="tm-placeholder__user-pic loads"></div> <div class="tm-placeholder__user-date loads"></div></div> <div class="tm-placeholder-article-card__title"><div class="tm-placeholder__line tm-placeholder-article-card__title-line loads"></div> <div class="tm-placeholder__line tm-placeholder-article-card__title-line loads"></div></div> <div class="tm-placeholder-article-card__icons tm-placeholder__counters"><div class="tm-placeholder-data-icon"><div class="tm-placeholder__icon tm-placeholder__icon_large loads"></div> <div class="tm-placeholder__line tm-placeholder__line_icon-text"></div></div><div class="tm-placeholder-data-icon"><div class="tm-placeholder__icon tm-placeholder__icon_large loads"></div> <div class="tm-placeholder__line tm-placeholder__line_icon-text"></div></div><div class="tm-placeholder-data-icon"><div class="tm-placeholder__icon tm-placeholder__icon_large loads"></div> <div class="tm-placeholder__line tm-placeholder__line_icon-text"></div></div><div class="tm-placeholder-data-icon"><div class="tm-placeholder__icon tm-placeholder__icon_large loads"></div> <div class="tm-placeholder__line tm-placeholder__line_icon-text"></div></div></div></div><div class="tm-placeholder-article-card"><div class="tm-placeholder__user"><div class="tm-placeholder__user-pic loads"></div> <div class="tm-placeholder__user-date loads"></div></div> <div class="tm-placeholder-article-card__title"><div class="tm-placeholder__line tm-placeholder-article-card__title-line loads"></div> <div class="tm-placeholder__line tm-placeholder-article-card__title-line loads"></div></div> <div class="tm-placeholder-article-card__icons tm-placeholder__counters"><div class="tm-placeholder-data-icon"><div class="tm-placeholder__icon tm-placeholder__icon_large loads"></div> <div class="tm-placeholder__line tm-placeholder__line_icon-text"></div></div><div class="tm-placeholder-data-icon"><div class="tm-placeholder__icon tm-placeholder__icon_large loads"></div> <div class="tm-placeholder__line tm-placeholder__line_icon-text"></div></div><div class="tm-placeholder-data-icon"><div class="tm-placeholder__icon tm-placeholder__icon_large loads"></div> <div class="tm-placeholder__line tm-placeholder__line_icon-text"></div></div><div class="tm-placeholder-data-icon"><div class="tm-placeholder__icon tm-placeholder__icon_large loads"></div> <div class="tm-placeholder__line tm-placeholder__line_icon-text"></div></div></div></div><div class="tm-placeholder-article-card"><div class="tm-placeholder__user"><div class="tm-placeholder__user-pic loads"></div> <div class="tm-placeholder__user-date loads"></div></div> <div class="tm-placeholder-article-card__title"><div class="tm-placeholder__line tm-placeholder-article-card__title-line loads"></div> <div class="tm-placeholder__line tm-placeholder-article-card__title-line loads"></div></div> <div class="tm-placeholder-article-card__icons tm-placeholder__counters"><div class="tm-placeholder-data-icon"><div class="tm-placeholder__icon tm-placeholder__icon_large loads"></div> <div class="tm-placeholder__line tm-placeholder__line_icon-text"></div></div><div class="tm-placeholder-data-icon"><div class="tm-placeholder__icon tm-placeholder__icon_large loads"></div> <div class="tm-placeholder__line tm-placeholder__line_icon-text"></div></div><div class="tm-placeholder-data-icon"><div class="tm-placeholder__icon tm-placeholder__icon_large loads"></div> <div class="tm-placeholder__line tm-placeholder__line_icon-text"></div></div><div class="tm-placeholder-data-icon"><div class="tm-placeholder__icon tm-placeholder__icon_large loads"></div> <div class="tm-placeholder__line tm-placeholder__line_icon-text"></div></div></div></div><div class="tm-placeholder-article-card"><div class="tm-placeholder__user"><div class="tm-placeholder__user-pic loads"></div> <div class="tm-placeholder__user-date loads"></div></div> <div class="tm-placeholder-article-card__title"><div class="tm-placeholder__line tm-placeholder-article-card__title-line loads"></div> <div class="tm-placeholder__line tm-placeholder-article-card__title-line loads"></div></div> <div class="tm-placeholder-article-card__icons tm-placeholder__counters"><div class="tm-placeholder-data-icon"><div class="tm-placeholder__icon tm-placeholder__icon_large loads"></div> <div class="tm-placeholder__line tm-placeholder__line_icon-text"></div></div><div class="tm-placeholder-data-icon"><div class="tm-placeholder__icon tm-placeholder__icon_large loads"></div> <div class="tm-placeholder__line tm-placeholder__line_icon-text"></div></div><div class="tm-placeholder-data-icon"><div class="tm-placeholder__icon tm-placeholder__icon_large loads"></div> <div class="tm-placeholder__line tm-placeholder__line_icon-text"></div></div><div class="tm-placeholder-data-icon"><div class="tm-placeholder__icon tm-placeholder__icon_large loads"></div> <div class="tm-placeholder__line tm-placeholder__line_icon-text"></div></div></div></div></div> <!----> <!----> <!----> <!----></div> <!----></div></div> <!----></section> <section data-navigatable="" tabindex="0" data-async-called="true" class="tm-block tm-stories-block tm-block tm-block_spacing-around"><header class="tm-block__header tm-block__header"><div class="tm-block__header-container"><h2 class="tm-block__title tm-block__title">Истории</h2> </div> <!----></header> <div class="tm-block__body tm-block__body tm-block__body_variant-equal"><div class="tm-stories-empty"><div class="tm-stories-card-empty"><div class="tm-stories-card-empty__image"></div> <div class="tm-stories-card-empty__title"><div class="tm-stories-card-empty__title-block"></div> <div class="tm-stories-card-empty__title-block"></div> <div class="tm-stories-card-empty__title-block"></div></div></div><div class="tm-stories-card-empty"><div class="tm-stories-card-empty__image"></div> <div class="tm-stories-card-empty__title"><div class="tm-stories-card-empty__title-block"></div> <div class="tm-stories-card-empty__title-block"></div> <div class="tm-stories-card-empty__title-block"></div></div></div><div class="tm-stories-card-empty"><div class="tm-stories-card-empty__image"></div> <div class="tm-stories-card-empty__title"><div class="tm-stories-card-empty__title-block"></div> <div class="tm-stories-card-empty__title-block"></div> <div class="tm-stories-card-empty__title-block"></div></div></div><div class="tm-stories-card-empty"><div class="tm-stories-card-empty__image"></div> <div class="tm-stories-card-empty__title"><div class="tm-stories-card-empty__title-block"></div> <div class="tm-stories-card-empty__title-block"></div> <div class="tm-stories-card-empty__title-block"></div></div></div><div class="tm-stories-card-empty"><div class="tm-stories-card-empty__image"></div> <div class="tm-stories-card-empty__title"><div class="tm-stories-card-empty__title-block"></div> <div class="tm-stories-card-empty__title-block"></div> <div class="tm-stories-card-empty__title-block"></div></div></div><div class="tm-stories-card-empty"><div class="tm-stories-card-empty__image"></div> <div class="tm-stories-card-empty__title"><div class="tm-stories-card-empty__title-block"></div> <div class="tm-stories-card-empty__title-block"></div> <div class="tm-stories-card-empty__title-block"></div></div></div></div> <!----></div> <!----></section> <div><!----> <!----> <!----> <!----> <!----> <!----> <!----> <!----> <!----> <!----> <!----> <!----> <!----> <!----> <!----> <!----> <!----> <!----> <!----> <!----> <div class="tm-placeholder-inset tm-placeholder-courses"><div class="tm-placeholder-inset__header"><div class="tm-placeholder__line tm-placeholder__line_inset-header loads"></div></div> <div class="tm-placeholder-inset__body"><ul class="tm-placeholder-list"><li class="tm-placeholder-list__item tm-placeholder-list__item_inset"><div class="tm-placeholder-list__title-container"><div class="tm-placeholder__company-avatar"></div> <div class="tm-placeholder__line tm-placeholder__line_item-title loads"></div></div> <div class="tm-project-block-items__properties"><span class="tm-project-block-items__property-item"><span class="tm-placeholder__line loads" style="width: 100px;"></span></span><span class="tm-project-block-items__property-item"><span class="tm-placeholder__line loads" style="width: 100px;"></span></span><span class="tm-project-block-items__property-item"><span class="tm-placeholder__line loads" style="width: 100px;"></span></span></div></li><li class="tm-placeholder-list__item tm-placeholder-list__item_inset"><div class="tm-placeholder-list__title-container"><div class="tm-placeholder__company-avatar"></div> <div class="tm-placeholder__line tm-placeholder__line_item-title loads"></div></div> <div class="tm-project-block-items__properties"><span class="tm-project-block-items__property-item"><span class="tm-placeholder__line loads" style="width: 100px;"></span></span><span class="tm-project-block-items__property-item"><span class="tm-placeholder__line loads" style="width: 100px;"></span></span><span class="tm-project-block-items__property-item"><span class="tm-placeholder__line loads" style="width: 100px;"></span></span></div></li><li class="tm-placeholder-list__item tm-placeholder-list__item_inset"><div class="tm-placeholder-list__title-container"><div class="tm-placeholder__company-avatar"></div> <div class="tm-placeholder__line tm-placeholder__line_item-title loads"></div></div> <div class="tm-project-block-items__properties"><span class="tm-project-block-items__property-item"><span class="tm-placeholder__line loads" style="width: 100px;"></span></span><span class="tm-project-block-items__property-item"><span class="tm-placeholder__line loads" style="width: 100px;"></span></span><span class="tm-project-block-items__property-item"><span class="tm-placeholder__line loads" style="width: 100px;"></span></span></div></li><li class="tm-placeholder-list__item tm-placeholder-list__item_inset"><div class="tm-placeholder-list__title-container"><div class="tm-placeholder__company-avatar"></div> <div class="tm-placeholder__line tm-placeholder__line_item-title loads"></div></div> <div class="tm-project-block-items__properties"><span class="tm-project-block-items__property-item"><span class="tm-placeholder__line loads" style="width: 100px;"></span></span><span class="tm-project-block-items__property-item"><span class="tm-placeholder__line loads" style="width: 100px;"></span></span><span class="tm-project-block-items__property-item"><span class="tm-placeholder__line loads" style="width: 100px;"></span></span></div></li><li class="tm-placeholder-list__item tm-placeholder-list__item_inset"><div class="tm-placeholder-list__title-container"><div class="tm-placeholder__company-avatar"></div> <div class="tm-placeholder__line tm-placeholder__line_item-title loads"></div></div> <div class="tm-project-block-items__properties"><span class="tm-project-block-items__property-item"><span class="tm-placeholder__line loads" style="width: 100px;"></span></span><span class="tm-project-block-items__property-item"><span class="tm-placeholder__line loads" style="width: 100px;"></span></span><span class="tm-project-block-items__property-item"><span class="tm-placeholder__line loads" style="width: 100px;"></span></span></div></li></ul></div> <div class="tm-placeholder-inset__footer"><div class="tm-placeholder__line tm-placeholder__line_inset-footer loads"></div></div></div> <!----> <!----> <!----> <!----> <!----> <!----> <!----></div> <!----> <div><div><!----> <!----> <!----> <!----> <!----> <!----> <!----> <!----> <!----> <!----> <!----> <!----> <!----> <!----> <!----> <!----> <!----> <!----> <!----> <!----> <!----> <!----> <div class="tm-placeholder-promo"><div class="tm-placeholder-promo__header"><div class="tm-placeholder__line tm-placeholder__line_promo-title"></div></div> <div class="tm-placeholder-promo__body"><div class="tm-placeholder-promo__posts"><div class="tm-placeholder-promo__post"><div class="tm-placeholder-promo__image"></div> <div class="tm-placeholder__line tm-placeholder__line_post-title"></div></div> <div class="tm-placeholder-promo__post"><div class="tm-placeholder-promo__image"></div> <div class="tm-placeholder__line tm-placeholder__line_post-title"></div></div> <div class="tm-placeholder-promo__post"><div class="tm-placeholder-promo__image"></div> <div class="tm-placeholder__line tm-placeholder__line_post-title"></div></div></div> <div class="tm-placeholder-promo__dots"><div class="tm-placeholder-promo__dot"></div> <div class="tm-placeholder-promo__dot"></div> <div class="tm-placeholder-promo__dot"></div></div></div></div> <!----> <!----> <!----> <!----> <!----></div></div> <!----></div></div></div></div></div> <div class="tm-page__sidebar"><!----></div></div></div></div></main> <!----></div> <!----> <div class="tm-footer"><div class="tm-page-width"><div class="tm-footer__container"><div class="tm-footer__title"><a href="/ru/" class="tm-svg-icon__wrapper tm-footer__title-link router-link-active"><svg height="16" width="16" class="tm-svg-img tm-svg-icon"><title>Хабр</title> <use xlink:href="/img/habr-logo-ru.svg#logo"></use></svg></a></div> <div class="tm-footer__social"><a href="https://www.facebook.com/habrahabr.ru" rel="nofollow noopener noreferrer" target="_blank" class="tm-svg-icon__wrapper tm-social-icons__icon"><svg height="16" width="16" class="tm-svg-img tm-svg-icon"><title>Facebook</title> <use xlink:href="/img/social-icons-sprite.svg#social-logo-facebook"></use></svg></a><a href="https://twitter.com/habr_com" rel="nofollow noopener noreferrer" target="_blank" class="tm-svg-icon__wrapper tm-social-icons__icon"><svg height="16" width="16" class="tm-svg-img tm-svg-icon"><title>Twitter</title> <use xlink:href="/img/social-icons-sprite.svg#social-logo-twitter"></use></svg></a><a href="https://vk.com/habr" rel="nofollow noopener noreferrer" target="_blank" class="tm-svg-icon__wrapper tm-social-icons__icon"><svg height="16" width="16" class="tm-svg-img tm-svg-icon"><title>VK</title> <use xlink:href="/img/social-icons-sprite.svg#social-logo-vkontakte"></use></svg></a><a href="https://telegram.me/habr_com" rel="nofollow noopener noreferrer" target="_blank" class="tm-svg-icon__wrapper tm-social-icons__icon"><svg height="16" width="16" class="tm-svg-img tm-svg-icon"><title>Telegram</title> <use xlink:href="/img/social-icons-sprite.svg#social-logo-telegram"></use></svg></a><a href="https://www.youtube.com/channel/UCd_sTwKqVrweTt4oAKY5y4w" rel="nofollow noopener noreferrer" target="_blank" class="tm-svg-icon__wrapper tm-social-icons__icon"><svg height="16" width="16" class="tm-svg-img tm-svg-icon"><title>Youtube</title> <use xlink:href="/img/social-icons-sprite.svg#social-logo-youtube"></use></svg></a><a href="https://zen.yandex.ru/habr" rel="nofollow noopener noreferrer" target="_blank" class="tm-svg-icon__wrapper tm-social-icons__icon"><svg height="16" width="16" class="tm-svg-img tm-svg-icon"><title>Яндекс Дзен</title> <use xlink:href="/img/social-icons-sprite.svg#social-logo-zen"></use></svg></a></div> <DIV class="v-portal" style="display:none;"></DIV> <button class="tm-footer__link"><svg height="16" width="16" class="tm-svg-img tm-footer__icon"><title>Язык</title> <use xlink:href="/img/megazord-v28.2b11c25e..svg#lang"></use></svg>
        Настройка языка
      </button> <a href="/ru/feedback/" class="tm-footer__link">
        Техническая поддержка
      </a> <a href="/berserk-mode-nope" class="tm-footer__link">
        Вернуться на старую версию
      </a> <div class="tm-footer-copyright"><span class="tm-copyright"><span class="tm-copyright__years">© 2006–2023, </span> <span class="tm-copyright__name"><a href="https://company.habr.com/" rel="noopener" target="_blank" class="tm-copyright__link">Habr</a></span></span></div></div></div></div> <!----> <!----></div> <div class="vue-portal-target"></div></div>
<script>window.__INITIAL_STATE__={"adblock":{"hasAcceptableAdsFilter":false,"hasAdblock":false},"articlesList":{"articlesList":{"718428":{"id":"718428","timePublished":"2023-02-21T18:38:38+00:00","isCorporative":false,"lang":"ru","titleHtml":"Оригинальность человеческой идеи после ИИ","leadData":{"textHtml":"\u003Cp\u003EОсновной вопрос, поднятый здесь: \u003Cem\u003Eмогут ли люди в будущем надеяться на оригинальность и значимость своих мыслей и идей, когда искусственный интеллект и нейросети уже так хорошо их имитируют?\u003C\u002Fem\u003E\u003C\u002Fp\u003E\u003Cp\u003E\u003C\u002Fp\u003E","imageUrl":"https:\u002F\u002Fhabrastorage.org\u002Fgetpro\u002Fhabr\u002Fupload_files\u002F423\u002F578\u002F32f\u002F42357832f51b7be8190e152669f5bf06.png","buttonTextHtml":"Читать далее","image":{"url":"https:\u002F\u002Fhabrastorage.org\u002Fgetpro\u002Fhabr\u002Fupload_files\u002F423\u002F578\u002F32f\u002F42357832f51b7be8190e152669f5bf06.png","fit":"cover","positionY":54,"positionX":3}},"editorVersion":"2.0","postType":"article","postLabels":[],"author":{"id":"2778473","alias":"Mihahanya","fullname":"Бухтияров Михаил Сергеевич","avatarUrl":"\u002F\u002Fhabrastorage.org\u002Fgetpro\u002Fhabr\u002Favatars\u002F625\u002Ff78\u002F4e0\u002F625f784e05e00dded4f79a8806660b2f.jpg","speciality":"Разработчик","scoreStats":{"score":11,"votesCount":19},"rating":-2.5,"relatedData":null,"contacts":[{"title":"Сайт","url":"https:\u002F\u002Fmihas-games.itch.io\u002F","value":"https:\u002F\u002Fmihas-games.itch.io\u002F","siteTitle":null,"favicon":null},{"title":"Github","url":"https:\u002F\u002Fgithub.com\u002FMihahanya\u002F","value":"Mihahanya","siteTitle":null,"favicon":null}],"authorContacts":[{"title":"Сайт","url":"https:\u002F\u002Fmihas-games.itch.io\u002F","value":"https:\u002F\u002Fmihas-games.itch.io\u002F","siteTitle":null,"favicon":null},{"title":"Github","url":"https:\u002F\u002Fgithub.com\u002FMihahanya\u002F","value":"Mihahanya","siteTitle":null,"favicon":null}],"paymentDetails":{"paymentYandexMoney":null,"paymentPayPalMe":null,"paymentWebmoney":null}},"statistics":{"commentsCount":26,"favoritesCount":11,"readingCount":2039,"score":-5,"votesCount":9,"votesCountPlus":2,"votesCountMinus":7},"hubs":[{"id":"21922","alias":"artificial_intelligence","type":"collective","title":"Искусственный интеллект","titleHtml":"Искусственный интеллект","isProfiled":false,"relatedData":null},{"id":"22014","alias":"futurenow","type":"collective","title":"Будущее здесь","titleHtml":"Будущее здесь","isProfiled":false,"relatedData":null}],"flows":[{"id":"7","alias":"popsci","title":"Научпоп","titleHtml":"Научпоп"}],"relatedData":null,"textHtml":"\u003Cdiv xmlns=\"http:\u002F\u002Fwww.w3.org\u002F1999\u002Fxhtml\"\u003E\u003Cp\u003EОсновной вопрос, поднятый здесь: \u003Cem\u003Eмогут ли люди в будущем надеяться на оригинальность и значимость своих мыслей и идей, когда искусственный интеллект и нейросети уже так хорошо их имитируют?\u003C\u002Fem\u003E\u003C\u002Fp\u003E\u003Cfigure class=\"bordered full-width \"\u003E\u003Cimg src=\"https:\u002F\u002Fhabrastorage.org\u002Fr\u002Fw1560\u002Fgetpro\u002Fhabr\u002Fupload_files\u002F423\u002F578\u002F32f\u002F42357832f51b7be8190e152669f5bf06.png\" width=\"983\" height=\"984\" data-src=\"https:\u002F\u002Fhabrastorage.org\u002Fgetpro\u002Fhabr\u002Fupload_files\u002F423\u002F578\u002F32f\u002F42357832f51b7be8190e152669f5bf06.png\"\u002F\u003E\u003Cfigcaption\u003E\u003C\u002Ffigcaption\u003E\u003C\u002Ffigure\u003E\u003Cp\u003EРассматривая данный вопрос выявляются два естественных пути развития: ИИ превосходит мысль человека, и общество ждет жесточайший культурный переворот, или он становится уже инструментом улучшения оригинальности человеческих идей. Представить иной путь, с отказом от ИИ или остановкой его развития, уже невозможно так как он уже оказывает существенное влияние на многие сферы нашей жизни.\u003C\u002Fp\u003E\u003Cp\u003EЧтобы понять насколько вообще возможно создать оригинальную идею, рассмотрим как это делают нейросети и мы. \u003C\u002Fp\u003E\u003Cp\u003EЧтобы нейросеть могла выдавать некие мысли и ответы она проходит процесс обучения, в ходе которого через нее пропускаются огромные объемы данных. ИИ выявляет закономерности и следствия в данных, запоминает информацию \u003Cem\u003E[если так можно выражаться об алгоритме]\u003C\u002Fem\u003E, чтобы потом выдать наиболее естественный и правильный ответ (относительно данных обучения). \u003C\u002Fp\u003E\u003Cp\u003EТакой процесс получается справедливым и для формирования какого‑либо навыка человеком. Но навык ли творческий процесс? — не менее философский вопрос чем основной, поэтому будем рассматривать более близкий к основному: \u003Cem\u003Eможет ли ИИ имитировать творческий процесс, а точнее результат этого процесса.\u003C\u002Fem\u003E\u003C\u002Fp\u003E\u003Cp\u003EЕсли посмотреть из чего получается оригинальная мысль, то можем выделить следующие факторы: \u003Cem\u003Eличные ценности, культурный опыт, перспектива и взгляд на мир, эмоциональные и интуитивные компоненты\u003C\u002Fem\u003E. Из этого и складывается индивидуальность творца‑человека. ИИ не обладает эмоциями. Но что из этого не может быть \u003Cem\u003Eимитировано\u003C\u002Fem\u003E? Он не может обладать ничем из перечисленного, ведь это все присуще живым и мыслящим существам, а ИИ не живой; однако он может все это впитать и \u003Cem\u003Eвоссоздать в себе\u003C\u002Fem\u003E. Эти факторы — следствие всего пережитого, всего накопленного и отпечатанного опыта. А впитывать опыт — то, что ИИ и делают и способны делать это лучше нас и в гораздо большем объеме, чем способны люди, ведь ИИ не органичен физиологическими факторами.\u003C\u002Fp\u003E\u003Cp\u003EМораль, культура, наука — когда мы рождаемся мы не имеем понятия о них, но со временем осознаем, и уже самостоятельно можем анализировать поступки с моральной точки зрения, знакомы с различными культурными аспектами, способны создавать и доказывать гипотезы. Мы можем впервые в своей жизни сложить два случайных числа 1533 и 1902, зная принцип сложения, что такое цифры и как их записывать, с первого раза понять что такое «статичный», зная что такое статика и зная как образовываются слова — и все это из опыта. А ИИ уже освоил язык — основной инструмент мышления.\u003C\u002Fp\u003E\u003Cp\u003EИз сказанного, очевидно, что моя аргументация строится на том, что, то главное, на чем стоит оригинальная идея — весь пережитый опыт; который вполне способен впитать и воспроизвести ИИ. Однако она естественно опровергается наличием другого неотъемлемого факта без которого не может появиться идея. \u003Cem\u003EВоля\u003C\u002Fem\u003E. Единственное, почему нейросеть выдаст тебе ответ: ты сделаешь запрос. Это не говорит о том, что ИИ не сможет выдать\u002Fпринять запрос другого ИИ (или даже создать нового ИИ), а говорит лишь, что отправной точкой все равно будет человек, который даст эту возможность и сделает запрос \u003Cem\u003E[будь у меня такая возможность, я бы не смог не сделать]\u003C\u002Fem\u003E.\u003C\u002Fp\u003E\u003Cp\u003EНеобходимо обозначить, что, чтобы пройти путь до сверхмыслящего ИИ, обязана будет стадия ИИ‑помощника. А мы, если что, сейчас находимся на этой стадии, уже невозможно отрицать роль ИИ в современном мире. Выводы напрашиваются сами собой. Но если рассматривать сказанное ранее в менее радикальной форме, то более реалистичным виден расклад, что ИИ может использоваться как инструмент для расширения и открытия новых горизонтов для человеческой мысли, но при этом его мысль может превосходить мысль человека из‑за своей высокой скорости и точности вычислений. \u003C\u002Fp\u003E\u003Cp\u003EТак могут ли люди в будущем надеяться на оригинальность и значимость своих мыслей и идей перед ИИ? — да, но и ИИ могут на это надеяться перед людьми.\u003C\u002Fp\u003E\u003Cp\u003E\u003C\u002Fp\u003E\u003C\u002Fdiv\u003E","tags":[{"titleHtml":"искусственный интеллект"},{"titleHtml":"этика цифровых технологий"},{"titleHtml":"мысль искусственного интеллекта"}],"metadata":{"stylesUrls":[],"scriptUrls":[],"shareImageUrl":"https:\u002F\u002Fhabrastorage.org\u002Fgetpro\u002Fhabr\u002Fupload_files\u002F423\u002F578\u002F32f\u002F42357832f51b7be8190e152669f5bf06.png","shareImageWidth":1200,"shareImageHeight":630,"vkShareImageUrl":"https:\u002F\u002Fhabrastorage.org\u002Fgetpro\u002Fhabr\u002Fupload_files\u002F423\u002F578\u002F32f\u002F42357832f51b7be8190e152669f5bf06.png","schemaJsonLd":"{\"@context\":\"http:\\\u002F\\\u002Fschema.org\",\"@type\":\"Article\",\"mainEntityOfPage\":{\"@type\":\"WebPage\",\"@id\":\"https:\\\u002F\\\u002Fhabr.com\\\u002Fru\\\u002Fpost\\\u002F718428\\\u002F\"},\"headline\":\"Оригинальность человеческой идеи после ИИ\",\"datePublished\":\"2023-02-21T21:38:38+03:00\",\"dateModified\":\"2023-02-22T09:13:15+03:00\",\"author\":{\"@type\":\"Person\",\"name\":\"Бухтияров Михаил Сергеевич\"},\"publisher\":{\"@type\":\"Organization\",\"name\":\"Habr\",\"logo\":{\"@type\":\"ImageObject\",\"url\":\"https:\\\u002F\\\u002Fhabrastorage.org\\\u002Fwebt\\\u002Fa_\\\u002Flk\\\u002F9m\\\u002Fa_lk9mjkccjox-zccjrpfolmkmq.png\"}},\"description\":\"Основной вопрос, поднятый здесь: могут&nbsp;ли люди в&nbsp;будущем надеяться на&nbsp;оригинальность и значимость своих мыслей и идей, когда искусственный интеллект и нейросети...\",\"url\":\"https:\\\u002F\\\u002Fhabr.com\\\u002Fru\\\u002Fpost\\\u002F718428\\\u002F#post-content-body\",\"about\":[\"h_artificial_intelligence\",\"h_futurenow\",\"f_popsci\"],\"image\":[\"https:\\\u002F\\\u002Fhabr.com\\\u002Fshare\\\u002Fpublication\\\u002F718428\\\u002Fd1b0d07c7435979fba610f633f2481eb\\\u002F\",\"https:\\\u002F\\\u002Fhabrastorage.org\\\u002Fgetpro\\\u002Fhabr\\\u002Fupload_files\\\u002F423\\\u002F578\\\u002F32f\\\u002F42357832f51b7be8190e152669f5bf06.png\"]}","metaDescription":"Основной вопрос, поднятый здесь: могут&nbsp;ли люди в&nbsp;будущем надеяться на&nbsp;оригинальность и значимость своих мыслей и идей, когда искусственный интеллект и нейросети уже так хорошо их...","mainImageUrl":null,"amp":true,"customTrackerLinks":[]},"polls":[],"commentsEnabled":true,"rulesRemindEnabled":false,"votesEnabled":true,"status":"published","plannedPublishTime":null,"checked":null,"hasPinnedComments":false,"format":"opinion","readingTime":3,"complexity":"medium","isEditorial":false}},"articlesIds":{},"isLoading":false,"pagesCount":{},"route":{},"reasonsList":null,"view":"list","lastVisitedRoute":{},"ssrCommentsArticleIds":[""],"karma":{"userReasonsList":null}},"authorContribution":{"authors":{}},"betaTest":{"currentAnnouncement":null,"announcements":{},"announcementCards":null,"announcementComments":{},"announcementCommentThreads":{},"announcementCommentingStatuses":{},"archivedList":[]},"authorStatistics":{"articleRefs":{},"articleIds":{},"pagesCount":{},"route":{},"viewsCount":[],"maxStatsCount":{}},"career":{"seoLandings":[],"hubs":"artificial_intelligence,futurenow"},"comments":{"articleComments":{},"articlePinnedComments":{},"searchCommentsResults":null,"pagesCount":null,"commentAccess":{},"scrollParents":{},"pageArticleComments":{"lastViewedComment":0,"postId":null,"lastCommentTimestamp":"","moderated":[],"moderatedIds":[],"commentRoute":""}},"companies":{"companyRefs":{},"companyIds":{},"companyTopIds":{},"pagesCount":{},"companyProfiles":{},"companiesCategories":[],"companiesCategoriesTotalCount":0,"companiesWidgets":{},"companiesWorkers":{},"companiesFans":{},"route":{},"isLoading":false,"companyWorkersLoading":false,"companyFansLoading":false,"vacancies":{},"companiesGalleries":{},"companiesBanners":{},"companiesLandingVacancies":{},"companiesTechnologies":{},"workplaceInfo":null},"companyAdmin":{"companyInfo":null,"companyInfoLoading":false,"faqArticles":null,"brandingPreviewImageUrl":null,"jivoStatus":0,"adminNotifications":null},"companiesContribution":{"hubs":{},"flows":{},"companyRefs":{}},"companyHubsContribution":{"contributionRefs":{"hubRefs":{},"hubIds":{}}},"conversation":{"messages":[],"respondent":null,"isLoadMore":false},"conversations":{"conversations":[],"unreadCount":0,"pagesCount":0},"desktopState":{"desktopFl":null,"desktopHl":null,"isChecked":false,"isLoginDemanded":false},"docs":{"menu":{},"articles":{},"mainMenu":[],"loading":{"main":false,"dropdown":false,"article":false}},"feature":{"isProbablyVisible":true},"flows":{"updates":{"countNewPostsBySubscription":null,"countNewPostsAll":56,"countNewNewsAll":28},"flows":[{"alias":"develop","id":"1","route":{"name":"FLOW_PAGE","params":{"flowName":"develop"}}},{"alias":"admin","id":"6","route":{"name":"FLOW_PAGE","params":{"flowName":"admin"}}},{"alias":"design","id":"2","route":{"name":"FLOW_PAGE","params":{"flowName":"design"}}},{"alias":"management","id":"3","route":{"name":"FLOW_PAGE","params":{"flowName":"management"}}},{"alias":"marketing","id":"4","route":{"name":"FLOW_PAGE","params":{"flowName":"marketing"}}},{"alias":"popsci","id":"7","route":{"name":"FLOW_PAGE","params":{"flowName":"popsci"}}}]},"global":{"isPwa":false,"device":"mobile","isHabrCom":true},"hubs":{"hubRefs":{},"hubIds":{},"pagesCount":{},"isLoading":false,"route":{}},"hubsBlock":{"hubRefs":{},"hubIds":{}},"i18n":{"fl":"ru","hl":"ru"},"info":{"infoPage":{},"isLoading":true},"location":{"urlStruct":{"protocol":null,"slashes":null,"auth":null,"host":null,"port":null,"hostname":null,"hash":null,"search":null,"query":{},"pathname":null,"path":null,"href":""}},"me":{"user":null,"uuid":null,"ppgDemanded":false,"karmaResetInfo":{"canReincarnate":null,"wasReincarnated":null,"currentScore":null},"notes":null},"modal":{"modals":[]},"mostReadingList":{"mostReadingListIds":[],"mostReadingListRefs":null,"promoPost":null},"ppa":{"articles":{},"card":null,"transactions":null,"totalTransactions":null,"isAccessible":null},"projectsBlocks":{"activeBlocks":{"courses":"project-block-article"}},"promoData":{"isLoading":false,"hasLoaded":false,"featurer":null,"megaposts":null,"promoLinks":null,"promoPosts":null},"pullRefresh":{"shouldRefresh":false},"sandbox":{"articleIds":[],"articleRefs":{},"pagesCount":null,"route":{},"lastVisitedRoute":{},"isLoading":false},"search":{"searchQueryError":null},"settingsOther":{"inputs":{"uiLang":{"errors":[],"ref":null,"value":""},"articlesLangEnglish":{"errors":[],"ref":null,"value":false},"articlesLangRussian":{"errors":[],"ref":null,"value":false},"agreement":{"errors":[],"ref":null,"value":false},"email":{"errors":[],"ref":null,"value":true},"digest":{"errors":[],"ref":null,"value":true}}},"similarList":{"similarListIds":[],"similarListRefs":null},"ssr":{"error":null,"isDataLoaded":false,"isDataLoading":false,"isHydrationFailed":false,"isServer":false},"stories":{"stories":[{"id":"story-280","author":{"logo":"https:\u002F\u002Fhabrastorage.org\u002Fgetpro\u002Fhabr\u002Fupload_files\u002F8f3\u002Ff89\u002Faa5\u002F8f3f89aa500a5fc407f7e1e927002ce0.png","title":"Geek Travel","link":null},"title":"Где в России покататься на дрезине","lang":"ru","startTime":"2023-03-09T10:00:00+03:00","finishTime":"2023-03-19T23:59:00+03:00","slides":[{"id":"story-280_1","image":"https:\u002F\u002Fhabrastorage.org\u002Fgetpro\u002Fhabr\u002Fupload_files\u002Fb44\u002F68b\u002Fd51\u002Fb4468bd51494723807a4438f03a9824d.jpg","button":null},{"id":"story-280_2","image":"https:\u002F\u002Fhabrastorage.org\u002Fgetpro\u002Fhabr\u002Fupload_files\u002F3aa\u002Fafe\u002F0fb\u002F3aaafe0fb803c0043aff70ae407a6da0.jpg","button":null},{"id":"story-280_3","image":"https:\u002F\u002Fhabrastorage.org\u002Fgetpro\u002Fhabr\u002Fupload_files\u002Fca6\u002F8ed\u002F3d8\u002Fca68ed3d8251f5e25034d27c4e73da3a.jpg","button":null},{"id":"story-280_4","image":"https:\u002F\u002Fhabrastorage.org\u002Fgetpro\u002Fhabr\u002Fupload_files\u002Ff02\u002Ff05\u002Fafd\u002Ff02f05afda6f5925e4aaa3748953575c.jpg","button":null},{"id":"story-280_5","image":"https:\u002F\u002Fhabrastorage.org\u002Fgetpro\u002Fhabr\u002Fupload_files\u002Fca9\u002Fa6a\u002Fad2\u002Fca9a6aad2113a292566924b015a44d88.jpg","button":null},{"id":"story-280_6","image":"https:\u002F\u002Fhabrastorage.org\u002Fgetpro\u002Fhabr\u002Fupload_files\u002F4f8\u002F708\u002Faa9\u002F4f8708aa9526b05dd8bc0e23dbbb59d7.jpg","button":null},{"id":"story-280_7","image":"https:\u002F\u002Fhabrastorage.org\u002Fgetpro\u002Fhabr\u002Fupload_files\u002F2af\u002F9d2\u002F852\u002F2af9d2852a460d69364e0969cbb7d04f.jpg","button":null}]},{"id":"story-288","author":{"logo":"https:\u002F\u002Fhabrastorage.org\u002Fgetpro\u002Fhabr\u002Fupload_files\u002F81b\u002F4f7\u002F1e8\u002F81b4f71e8fdc766f6d91491a5179ecb0.png","title":"Хабр Карьера","link":"https:\u002F\u002Fhabr.com\u002Fru\u002Fusers\u002Fhabr_career\u002Fposts\u002F"},"title":"Разбор резюме специалистов на Хабр Карьере","lang":"ru","startTime":"2023-03-08T13:00:00+03:00","finishTime":"2023-03-15T23:59:00+03:00","slides":[{"id":"story-288_1","image":"https:\u002F\u002Fhabrastorage.org\u002Fgetpro\u002Fhabr\u002Fupload_files\u002F85a\u002F0ec\u002Fde0\u002F85a0ecde038a35f01ff328a3e67f5450.png","button":null},{"id":"story-288_2","image":"https:\u002F\u002Fhabrastorage.org\u002Fgetpro\u002Fhabr\u002Fupload_files\u002F885\u002F078\u002F3e1\u002F8850783e127c042f4db7a31cbe43c561.png","button":null},{"id":"story-288_3","image":"https:\u002F\u002Fhabrastorage.org\u002Fgetpro\u002Fhabr\u002Fupload_files\u002F876\u002F34c\u002F5b8\u002F87634c5b855ea18469a3024e386bb160.png","button":{"title":"Смотреть разбор","link":"https:\u002F\u002Fu.habr.com\u002FyDfoT","colorType":"dark"}}]},{"id":"story-286","author":{"logo":"https:\u002F\u002Fhabrastorage.org\u002Fgetpro\u002Fhabr\u002Fupload_files\u002Ffbc\u002Fb5d\u002F360\u002Ffbcb5d3609dec6653734ff62ae0716be.png","title":"Хабр Карьера","link":"https:\u002F\u002Fu.habr.com\u002F7vVZT"},"title":"Дайджест событий для IT HR в марте","lang":"ru","startTime":"2023-03-07T14:54:42+03:00","finishTime":"2023-03-14T23:59:00+03:00","slides":[{"id":"story-286_1","image":"https:\u002F\u002Fhabrastorage.org\u002Fgetpro\u002Fhabr\u002Fupload_files\u002F6ec\u002F918\u002Fd6e\u002F6ec918d6ee1443d7134c2e6f51bda66b.png","button":null},{"id":"story-286_2","image":"https:\u002F\u002Fhabrastorage.org\u002Fgetpro\u002Fhabr\u002Fupload_files\u002F550\u002Fbac\u002Fc3f\u002F550bacc3f7017703253072cf1df3f8cc.png","button":null},{"id":"story-286_3","image":"https:\u002F\u002Fhabrastorage.org\u002Fgetpro\u002Fhabr\u002Fupload_files\u002F116\u002F16a\u002F369\u002F11616a3692d8af6ce0664338e5d627b5.png","button":{"title":"Смотреть события","link":"https:\u002F\u002Fu.habr.com\u002F7vVZT","colorType":"dark"}}]},{"id":"story-282","author":{"logo":"https:\u002F\u002Fhabrastorage.org\u002Fgetpro\u002Fhabr\u002Fupload_files\u002F1a2\u002F9de\u002F015\u002F1a29de01547fc4a280a31f5b6f7885e8.png","title":"Хабр","link":"https:\u002F\u002Fhabr.com\u002Fru\u002Fcompany\u002Fhabr\u002Fblog\u002F"},"title":"Топ-7 годноты из блогов компаний","lang":"ru","startTime":"2023-03-07T10:30:00+03:00","finishTime":"2023-03-14T23:59:00+03:00","slides":[{"id":"story-282_1","image":"https:\u002F\u002Fhabrastorage.org\u002Fgetpro\u002Fhabr\u002Fupload_files\u002F226\u002Fd11\u002F6dc\u002F226d116dcac30d269b222d560b1f3a1e.jpg","button":null},{"id":"story-282_2","image":"https:\u002F\u002Fhabrastorage.org\u002Fgetpro\u002Fhabr\u002Fupload_files\u002F3d6\u002F9d5\u002F69e\u002F3d69d569eab5cf849e273c489e3d9b10.jpg","button":{"title":"Рейс в прошлое","link":"https:\u002F\u002Fhabr.com\u002Fru\u002Fcompany\u002Ftuturu\u002Fblog\u002F719084\u002F","colorType":"light"}},{"id":"story-282_3","image":"https:\u002F\u002Fhabrastorage.org\u002Fgetpro\u002Fhabr\u002Fupload_files\u002F4e1\u002F22a\u002Fe71\u002F4e122ae71d78546e69a5fafcbfc8dccf.jpg","button":{"title":"Потыкать кнопки","link":"https:\u002F\u002Fhabr.com\u002Fru\u002Fcompany\u002Fselectel\u002Fblog\u002F718488\u002F","colorType":"light"}},{"id":"story-282_4","image":"https:\u002F\u002Fhabrastorage.org\u002Fgetpro\u002Fhabr\u002Fupload_files\u002F7bf\u002Fa89\u002F33c\u002F7bfa8933cc6c22db77996280ec004c24.jpg","button":{"title":"Узнать больше","link":"https:\u002F\u002Fhabr.com\u002Fru\u002Fcompany\u002Fgetmatch\u002Fblog\u002F719214\u002F","colorType":"light"}},{"id":"story-282_5","image":"https:\u002F\u002Fhabrastorage.org\u002Fgetpro\u002Fhabr\u002Fupload_files\u002Fd24\u002F344\u002Fc2a\u002Fd24344c2adccbca1b6255c34c467ab66.jpg","button":{"title":"Читать туториал","link":"https:\u002F\u002Fhabr.com\u002Fru\u002Fcompany\u002Fskillfactory\u002Fblog\u002F718894\u002F","colorType":"light"}},{"id":"story-282_6","image":"https:\u002F\u002Fhabrastorage.org\u002Fgetpro\u002Fhabr\u002Fupload_files\u002F957\u002F8a9\u002F6c7\u002F9578a96c7c15b1ffda98afbef9dfdef6.jpg","button":{"title":"Увидеть магию","link":"https:\u002F\u002Fhabr.com\u002Fru\u002Fcompany\u002Fruvds\u002Fblog\u002F718384\u002F","colorType":"light"}},{"id":"story-282_7","image":"https:\u002F\u002Fhabrastorage.org\u002Fgetpro\u002Fhabr\u002Fupload_files\u002Fabe\u002F5e1\u002F8dd\u002Fabe5e18dd079cb973e05cf76fd40fd1e.jpg","button":{"title":"Полетели","link":"https:\u002F\u002Fhabr.com\u002Fru\u002Fcompany\u002Fruvds\u002Fblog\u002F718446\u002F","colorType":"light"}},{"id":"story-282_8","image":"https:\u002F\u002Fhabrastorage.org\u002Fgetpro\u002Fhabr\u002Fupload_files\u002F53e\u002F5e3\u002F30f\u002F53e5e330f39965464ec5f6908695a606.jpg","button":{"title":"Протокол операции","link":"https:\u002F\u002Fhabr.com\u002Fru\u002Fcompany\u002Ftimeweb\u002Fblog\u002F717956\u002F","colorType":"light"}}]},{"id":"story-284","author":{"logo":"https:\u002F\u002Fhabrastorage.org\u002Fgetpro\u002Fhabr\u002Fupload_files\u002F5ff\u002F7a1\u002Fe66\u002F5ff7a1e662d709b83d63619f3671d00d.png","title":"Хабр Карьера","link":"https:\u002F\u002Fu.habr.com\u002FADhnK"},"title":"Зарплаты разработчиков по языкам и квалификациям","lang":"ru","startTime":"2023-03-06T15:00:00+03:00","finishTime":"2023-03-13T23:59:22+03:00","slides":[{"id":"story-284_1","image":"https:\u002F\u002Fhabrastorage.org\u002Fgetpro\u002Fhabr\u002Fupload_files\u002F4c3\u002F01e\u002Fe3a\u002F4c301ee3aa186d340f3a0d6a9df374a2.png","button":null},{"id":"story-284_2","image":"https:\u002F\u002Fhabrastorage.org\u002Fgetpro\u002Fhabr\u002Fupload_files\u002F001\u002F590\u002F7d7\u002F0015907d7ad648b5ceb669575faabdc0.png","button":null},{"id":"story-284_3","image":"https:\u002F\u002Fhabrastorage.org\u002Fgetpro\u002Fhabr\u002Fupload_files\u002F32f\u002F2da\u002Fcba\u002F32f2dacbaa77eb35fc4a88516a05d000.png","button":null},{"id":"story-284_4","image":"https:\u002F\u002Fhabrastorage.org\u002Fgetpro\u002Fhabr\u002Fupload_files\u002F77d\u002Fc53\u002Fd48\u002F77dc53d482ca59bc47cbb184a0fb1019.png","button":null},{"id":"story-284_5","image":"https:\u002F\u002Fhabrastorage.org\u002Fgetpro\u002Fhabr\u002Fupload_files\u002F8bc\u002F8d5\u002F331\u002F8bc8d5331422e6cbc2ab5426e2d4807f.png","button":{"title":"Узнать подробности","link":"https:\u002F\u002Fu.habr.com\u002FADhnK","colorType":"dark"}}]},{"id":"story-278","author":{"logo":"https:\u002F\u002Fhabrastorage.org\u002Fgetpro\u002Fhabr\u002Fupload_files\u002F3b2\u002F2b9\u002F874\u002F3b22b9874c30d2e95f06e8ba591d7226.png","title":"Хабр","link":"https:\u002F\u002Fhabr.com\u002Fru\u002Fcompany\u002Fhabr\u002Fblog\u002F"},"title":"Схватил за мозг","lang":"ru","startTime":"2023-03-06T11:00:00+03:00","finishTime":"2023-03-19T23:59:00+03:00","slides":[{"id":"story-278_1","image":"https:\u002F\u002Fhabrastorage.org\u002Fgetpro\u002Fhabr\u002Fupload_files\u002F6d2\u002F515\u002F649\u002F6d2515649a98ebff0fff2c95f13aa9e6.jpg","button":null},{"id":"story-278_2","image":"https:\u002F\u002Fhabrastorage.org\u002Fgetpro\u002Fhabr\u002Fupload_files\u002F6ba\u002F37c\u002F756\u002F6ba37c75671941bb212e0bf815f99550.jpg","button":{"title":"Что оказалось?","link":"https:\u002F\u002Fu.habr.com\u002Fbrain01","colorType":"light"}},{"id":"story-278_3","image":"https:\u002F\u002Fhabrastorage.org\u002Fgetpro\u002Fhabr\u002Fupload_files\u002F702\u002Fbe8\u002Fa8f\u002F702be8a8fe21d483936df54dc074b96a.jpg","button":{"title":"Осознать","link":"https:\u002F\u002Fu.habr.com\u002Fbrain02","colorType":"light"}},{"id":"story-278_4","image":"https:\u002F\u002Fhabrastorage.org\u002Fgetpro\u002Fhabr\u002Fupload_files\u002F9e2\u002F2c2\u002F499\u002F9e22c2499018c37dbb4064053ef7e0a0.jpg","button":{"title":"Отложить таблетку","link":"https:\u002F\u002Fu.habr.com\u002Fbrain03","colorType":"dark"}},{"id":"story-278_5","image":"https:\u002F\u002Fhabrastorage.org\u002Fgetpro\u002Fhabr\u002Fupload_files\u002F756\u002F85f\u002F99b\u002F75685f99b00f7a2323028948818a1b66.jpg","button":{"title":"Смотреть советы","link":"https:\u002F\u002Fu.habr.com\u002Fbrain04","colorType":"dark"}},{"id":"story-278_6","image":"https:\u002F\u002Fhabrastorage.org\u002Fgetpro\u002Fhabr\u002Fupload_files\u002F442\u002F9a8\u002F159\u002F4429a8159a4280575a30cf1bbbdb3b08.jpg","button":{"title":"Уделить внимание","link":"https:\u002F\u002Fu.habr.com\u002Fbrain05","colorType":"light"}},{"id":"story-278_7","image":"https:\u002F\u002Fhabrastorage.org\u002Fgetpro\u002Fhabr\u002Fupload_files\u002F892\u002Fe3e\u002Fa8b\u002F892e3ea8b4ad8934c6858348943804fd.jpg","button":{"title":"Записать нужное","link":"https:\u002F\u002Fu.habr.com\u002Fbrain06","colorType":"light"}},{"id":"story-278_8","image":"https:\u002F\u002Fhabrastorage.org\u002Fgetpro\u002Fhabr\u002Fupload_files\u002Ffa5\u002Ffe9\u002F7bb\u002Ffa5fe97bb1ec4af1e7b1e164171b795c.jpg","button":{"title":"Какое именно?","link":"https:\u002F\u002Fu.habr.com\u002Fbrain07","colorType":"light"}}]},{"id":"story-276","author":{"logo":"https:\u002F\u002Fhabrastorage.org\u002Fgetpro\u002Fhabr\u002Fupload_files\u002F371\u002F16e\u002F9ae\u002F37116e9aec24a99308b5d55fd3385062.png","title":"Хабр","link":"https:\u002F\u002Fu.habr.com\u002Fstories_habrapp"},"title":"Приложение Хабра для Android и iOS","lang":"ru","startTime":"2023-03-06T10:00:00+03:00","finishTime":"2023-03-19T23:59:00+03:00","slides":[{"id":"story-276_1","image":"https:\u002F\u002Fhabrastorage.org\u002Fgetpro\u002Fhabr\u002Fupload_files\u002F5d5\u002Fadb\u002F1dd\u002F5d5adb1dd2abf6a2e7f8956f4879eced.jpg","button":{"title":"Вот это новость!","link":"https:\u002F\u002Fu.habr.com\u002Fstories_habrapp","colorType":"light"}},{"id":"story-276_2","image":"https:\u002F\u002Fhabrastorage.org\u002Fgetpro\u002Fhabr\u002Fupload_files\u002F2e1\u002Fd75\u002F99c\u002F2e1d7599c38e3c11d124d5e8beece6cc.jpg","button":{"title":"А что у вас за стек?","link":"https:\u002F\u002Fu.habr.com\u002Fstories_habrapp","colorType":"dark"}},{"id":"story-276_3","image":"https:\u002F\u002Fhabrastorage.org\u002Fgetpro\u002Fhabr\u002Fupload_files\u002F448\u002Fe83\u002F1f9\u002F448e831f9da9256729dff47718aefdab.jpg","button":{"title":"Перейти к приложению","link":"https:\u002F\u002Fu.habr.com\u002FK8Ib8","colorType":"light"}},{"id":"story-276_4","image":"https:\u002F\u002Fhabrastorage.org\u002Fgetpro\u002Fhabr\u002Fupload_files\u002Faa0\u002F395\u002F080\u002Faa0395080db2f6eebbc22620a3153c1c.jpg","button":{"title":"Перейти к приложению","link":"https:\u002F\u002Fu.habr.com\u002FFatyV","colorType":"dark"}}]},{"id":"story-272","author":{"logo":"https:\u002F\u002Fhabrastorage.org\u002Fgetpro\u002Fhabr\u002Fupload_files\u002F82b\u002Fdd7\u002F7d8\u002F82bdd77d8ef7304d3b1b599191c2bb1c.png","title":"Сезоны Хабра","link":"https:\u002F\u002Fu.habr.com\u002F5P6i7"},"title":"Открыт сезон ML","lang":"ru","startTime":"2023-03-02T09:00:41+03:00","finishTime":"2023-03-31T20:53:00+03:00","slides":[{"id":"story-272_1","image":"https:\u002F\u002Fhabrastorage.org\u002Fgetpro\u002Fhabr\u002Fupload_files\u002F27f\u002Fd3a\u002Fddf\u002F27fd3addfe06da09592bdcf61db15795.jpg","button":null},{"id":"story-272_2","image":"https:\u002F\u002Fhabrastorage.org\u002Fgetpro\u002Fhabr\u002Fupload_files\u002F935\u002F582\u002F992\u002F935582992e378add33c898451b2a0d9f.jpg","button":null},{"id":"story-272_3","image":"https:\u002F\u002Fhabrastorage.org\u002Fgetpro\u002Fhabr\u002Fupload_files\u002Fe13\u002Feb8\u002Fa24\u002Fe13eb8a24b60622d3da72fd6e7ed3fda.jpg","button":null},{"id":"story-272_4","image":"https:\u002F\u002Fhabrastorage.org\u002Fgetpro\u002Fhabr\u002Fupload_files\u002Fa85\u002F83f\u002F5cc\u002Fa8583f5ccfae747135343f0e68c84112.jpg","button":{"title":"Подробнее","link":"https:\u002F\u002Fu.habr.com\u002F5P6i7","colorType":"light"}},{"id":"story-272_5","image":"https:\u002F\u002Fhabrastorage.org\u002Fgetpro\u002Fhabr\u002Fupload_files\u002F60d\u002F1cb\u002F98c\u002F60d1cb98cdd42d2696ebc0ec54740a23.jpg","button":{"title":"Подробнее","link":"https:\u002F\u002Fu.habr.com\u002F5P6i7","colorType":"light"}}]},{"id":"story-262","author":{"logo":"https:\u002F\u002Fhabrastorage.org\u002Fgetpro\u002Fhabr\u002Fupload_files\u002F2fa\u002Fc8a\u002Fba8\u002F2fac8aba82b995297abea595da7990d1.png","title":"Хабр","link":"https:\u002F\u002Fhabr.com\u002Fru\u002Fcompany\u002Fhabr\u002Fblog\u002F"},"title":"Наука сна","lang":"ru","startTime":"2023-02-28T12:15:00+03:00","finishTime":"2023-03-15T23:59:00+03:00","slides":[{"id":"story-262_1","image":"https:\u002F\u002Fhabrastorage.org\u002Fgetpro\u002Fhabr\u002Fupload_files\u002Fa90\u002F725\u002F61c\u002Fa9072561c280c46933ff54fd8702cade.jpg","button":null},{"id":"story-262_2","image":"https:\u002F\u002Fhabrastorage.org\u002Fgetpro\u002Fhabr\u002Fupload_files\u002Ffd7\u002F658\u002F956\u002Ffd7658956ea825b1c317c7f688c48058.jpg","button":{"title":"Читать лекцию","link":"https:\u002F\u002Fu.habr.com\u002Fson01","colorType":"light"}},{"id":"story-262_3","image":"https:\u002F\u002Fhabrastorage.org\u002Fgetpro\u002Fhabr\u002Fupload_files\u002F366\u002Fd2e\u002F707\u002F366d2e70725209177fa82a4119139c86.jpg","button":{"title":"При чём же?","link":"https:\u002F\u002Fu.habr.com\u002Fson02","colorType":"light"}},{"id":"story-262_4","image":"https:\u002F\u002Fhabrastorage.org\u002Fgetpro\u002Fhabr\u002Fupload_files\u002F4bd\u002F40f\u002F731\u002F4bd40f731bfbf571a709dd2f357f06b4.jpg","button":{"title":"Заглянуть в дневник","link":"https:\u002F\u002Fu.habr.com\u002Fson03","colorType":"light"}},{"id":"story-262_5","image":"https:\u002F\u002Fhabrastorage.org\u002Fgetpro\u002Fhabr\u002Fupload_files\u002F944\u002F7ad\u002Fe2f\u002F9447ade2f38c3c36790be75bf4462047.jpg","button":{"title":"Последствия","link":"https:\u002F\u002Fu.habr.com\u002Fson04","colorType":"light"}},{"id":"story-262_6","image":"https:\u002F\u002Fhabrastorage.org\u002Fgetpro\u002Fhabr\u002Fupload_files\u002F74c\u002Fce1\u002F4dc\u002F74cce14dc903b245dca90df3f2747abb.jpg","button":{"title":"Смотреть список","link":"https:\u002F\u002Fu.habr.com\u002Fson05","colorType":"light"}},{"id":"story-262_7","image":"https:\u002F\u002Fhabrastorage.org\u002Fgetpro\u002Fhabr\u002Fupload_files\u002Fbc9\u002Fa62\u002F9f0\u002Fbc9a629f0c5ef2027cf7796749a06914.jpg","button":{"title":"Следы в истории","link":"https:\u002F\u002Fu.habr.com\u002Fson06","colorType":"light"}},{"id":"story-262_8","image":"https:\u002F\u002Fhabrastorage.org\u002Fgetpro\u002Fhabr\u002Fupload_files\u002F085\u002F0ee\u002F868\u002F0850ee868132e1ec4ec3b24caf7e719a.jpg","button":{"title":"Что придумали?","link":"https:\u002F\u002Fu.habr.com\u002Fson07","colorType":"light"}}]},{"id":"story-252","author":{"logo":"https:\u002F\u002Fhabrastorage.org\u002Fgetpro\u002Fhabr\u002Fupload_files\u002Ff19\u002F48d\u002Fd15\u002Ff1948dd155701f88d36e11387c1660ef.png","title":"Geek Travel","link":"https:\u002F\u002Fu.habr.com\u002F9TZjL"},"title":"Где искать северное сияние в России","lang":"ru","startTime":"2023-02-21T11:35:00+03:00","finishTime":"2023-03-12T11:22:00+03:00","slides":[{"id":"story-252_1","image":"https:\u002F\u002Fhabrastorage.org\u002Fgetpro\u002Fhabr\u002Fupload_files\u002F506\u002F188\u002F83b\u002F50618883bc97ce517531018d3290d961.jpg","button":{"title":"К посту","link":"https:\u002F\u002Fu.habr.com\u002F9TZjL","colorType":"light"}},{"id":"story-252_2","image":"https:\u002F\u002Fhabrastorage.org\u002Fgetpro\u002Fhabr\u002Fupload_files\u002Fe42\u002Fa71\u002Fe8e\u002Fe42a71e8eb5583814647f5ad55f9e0ae.jpg","button":null},{"id":"story-252_3","image":"https:\u002F\u002Fhabrastorage.org\u002Fgetpro\u002Fhabr\u002Fupload_files\u002F685\u002Fdbe\u002F4ff\u002F685dbe4ffe3940eca28ede7406898846.jpg","button":null},{"id":"story-252_4","image":"https:\u002F\u002Fhabrastorage.org\u002Fgetpro\u002Fhabr\u002Fupload_files\u002F383\u002F63b\u002F1f4\u002F38363b1f459d5daace0e4502f0780737.jpg","button":null},{"id":"story-252_5","image":"https:\u002F\u002Fhabrastorage.org\u002Fgetpro\u002Fhabr\u002Fupload_files\u002F32b\u002F665\u002F0c4\u002F32b6650c448d698b9ca4dba128afb56e.jpg","button":null},{"id":"story-252_6","image":"https:\u002F\u002Fhabrastorage.org\u002Fgetpro\u002Fhabr\u002Fupload_files\u002F95e\u002F0b2\u002F5be\u002F95e0b25be55ae919dbebbac6142e670d.jpg","button":null},{"id":"story-252_7","image":"https:\u002F\u002Fhabrastorage.org\u002Fgetpro\u002Fhabr\u002Fupload_files\u002F616\u002F1d4\u002Ff84\u002F6161d4f849be8d4e4aeee88ea2e3d572.jpg","button":null}]},{"id":"story-152","author":{"logo":"https:\u002F\u002Fhabrastorage.org\u002Fgetpro\u002Fhabr\u002Fupload_files\u002Fa49\u002F0d3\u002F609\u002Fa490d3609f29b6dfc53a7b88ab47ca64.png","title":"Хабр","link":"https:\u002F\u002Fu.habr.com\u002Fstory_HiM-anketa"},"title":"Сеньоры — очень странные люди","lang":"ru","startTime":"2023-01-23T11:00:00+03:00","finishTime":"2023-03-31T23:59:00+03:00","slides":[{"id":"story-152_1","image":"https:\u002F\u002Fhabrastorage.org\u002Fgetpro\u002Fhabr\u002Fupload_files\u002Fbbb\u002F901\u002F063\u002Fbbb9010630ae483ed1f41ec4e2572c13.png","button":null},{"id":"story-152_2","image":"https:\u002F\u002Fhabrastorage.org\u002Fgetpro\u002Fhabr\u002Fupload_files\u002F4f8\u002F66c\u002F14f\u002F4f866c14f0ca8999334438d7f17c0e3a.png","button":null},{"id":"story-152_3","image":"https:\u002F\u002Fhabrastorage.org\u002Fgetpro\u002Fhabr\u002Fupload_files\u002F6b9\u002Fa07\u002Fa61\u002F6b9a07a612df213ac3a1c179301828df.png","button":null},{"id":"story-152_4","image":"https:\u002F\u002Fhabrastorage.org\u002Fgetpro\u002Fhabr\u002Fupload_files\u002Ff6b\u002Fadb\u002Fb99\u002Ff6badbb9969d7e34ef4f7492767c6a77.png","button":null},{"id":"story-152_5","image":"https:\u002F\u002Fhabrastorage.org\u002Fgetpro\u002Fhabr\u002Fupload_files\u002Fd9c\u002F9ac\u002F878\u002Fd9c9ac878bec5b494699e0080dd2e813.png","button":null},{"id":"story-152_6","image":"https:\u002F\u002Fhabrastorage.org\u002Fgetpro\u002Fhabr\u002Fupload_files\u002Fdb1\u002Faf9\u002Fc3b\u002Fdb1af9c3bb557f6cee698cf67610f977.png","button":null},{"id":"story-152_7","image":"https:\u002F\u002Fhabrastorage.org\u002Fgetpro\u002Fhabr\u002Fupload_files\u002F5cf\u002Fbed\u002F65b\u002F5cfbed65bd20b7051b1aac2b9d6e807e.png","button":null},{"id":"story-152_8","image":"https:\u002F\u002Fhabrastorage.org\u002Fgetpro\u002Fhabr\u002Fupload_files\u002Ffa8\u002F251\u002F4a9\u002Ffa82514a9471cd455339e97178d8c021.png","button":null},{"id":"story-152_9","image":"https:\u002F\u002Fhabrastorage.org\u002Fgetpro\u002Fhabr\u002Fupload_files\u002Fbd5\u002F901\u002Fe95\u002Fbd5901e952d9cf638355a3cc8b0c0911.png","button":{"title":"Хочу помочь джуну","link":"https:\u002F\u002Fu.habr.com\u002Fstory_HiM-anketa","colorType":"light"}}]}]},"technotext":{"years":[],"technotextDocForNominees":null,"technotextDocForWinners":null,"technotextInfo":{},"technotextInfoLoading":false,"technotextWinners":{},"technotextWinnersLoading":false},"userHubsContribution":{"contributionRefs":{"hubRefs":{},"hubIds":{}}},"userInvites":{"availableInvites":0,"usedInvitesIds":[],"usedInvitesRefs":{},"usedInvitesPagesCount":0,"unusedInvitesIds":[],"unusedInvitesRefs":{},"unusedInvitesPagesCount":0},"userVotes":{"karmaVotesList":[],"karmaVotesPagesCount":null,"karmaVotesListLoading":false,"commentsVotesList":[],"commentsVotesPagesCount":null,"commentsVotesListLoading":false,"postsVotesList":[],"postsVotesPagesCount":null,"postsVotesListLoading":false,"userVotesList":[],"userVotesPagesCount":null,"userVotesListLoading":false},"users":{"authorRefs":{},"authorIds":{},"pagesCount":{},"authorProfiles":{},"userHubs":{},"userInvitations":{},"authorFollowers":{},"authorFollowed":{},"userSpecialization":{},"karmaStats":[],"statistics":null,"isLoading":false,"authorFollowersLoading":false,"authorFollowedLoading":false,"userHubsLoading":false,"userInvitationsLoading":false,"route":{}},"viewport":{"prevScrollY":{},"scrollY":0,"width":0},"tracker":{"items":{},"pagesCache":{},"markedViewedSilently":{},"markedRead":{},"unreadCounters":{"applications":null,"system":null,"mentions":null,"subscribers":null,"posts_and_comments":null},"unviewedCounters":{"applications":null,"system":null,"mentions":null,"subscribers":null,"posts_and_comments":null}}};(function(){var s;(s=document.currentScript||document.scripts[document.scripts.length-1]).parentNode.removeChild(s);}());</script>
<script src="https://assets.habr.com/habr-web/js/chunk-vendors.129fcbcb.js" defer></script><script src="https://assets.habr.com/habr-web/js/7298.c8f1d73c.js" defer></script><script src="https://assets.habr.com/habr-web/js/app.8a380906.js" defer></script>



    <script async src="https://www.googletagmanager.com/gtag/js?id=UA-726094-1"></script>
    <script>
      window.dataLayer = window.dataLayer || [];
      function gtag(){dataLayer.push(arguments);}
      gtag('js', new Date());
    </script>
  
  <script type="text/javascript" >
    (function(m,e,t,r,i,k,a){m[i]=m[i]||function(){(m[i].a=m[i].a||[]).push(arguments)};
    m[i].l=1*new Date();k=e.createElement(t),a=e.getElementsByTagName(t)[0],k.async=1,k.src=r,a.parentNode.insertBefore(k,a)})
    (window, document, "script", "https://mc.yandex.ru/metrika/tag.js", "ym");

    ym(24049213, "init", {
      defer:true,
      trackLinks:true,
      accurateTrackBounce:true,
      webvisor:false,
    });
  </script>
  <noscript>
    <div>
      <img src="https://mc.yandex.ru/watch/24049213" style="position:absolute; left:-9999px;" alt="" />
    </div>
  </noscript>
  
    <script type="text/javascript">
      window.addEventListener('load', function () {
        setTimeout(() => {
          const img = new Image();
          img.src = 'https://vk.com/rtrg?p=VK-RTRG-421343-57vKE';
        }, 0);
      });
    </script>
  
<script src="/js/ads.js" onload="window['zhY4i4nJ9K'] = true"></script>
</body>
</html>


JavaScript links:
//www.googletagservices.com/tag/js/gpt.js
https://unpkg.com/pwacompat
https://yandex.ru/ads/system/context.js
https://assets.habr.com/habr-web/js/chunk-vendors.129fcbcb.js
https://assets.habr.com/habr-web/js/7298.c8f1d73c.js
https://assets.habr.com/habr-web/js/app.8a380906.js
https://www.googletagmanager.com/gtag/js?id=UA-726094-1
/js/ads.js
